(kicad_pcb (version 20171130) (host pcbnew "(5.0.0-3-g5ebb6b6)")

  (general
    (thickness 1.6)
    (drawings 10)
    (tracks 216)
    (zones 0)
    (modules 5)
    (nets 42)
  )

  (page A4)
  (layers
    (0 F.Cu signal)
    (31 B.Cu signal)
    (32 B.Adhes user)
    (33 F.Adhes user)
    (34 B.Paste user)
    (35 F.Paste user)
    (36 B.SilkS user)
    (37 F.SilkS user)
    (38 B.Mask user)
    (39 F.Mask user)
    (40 Dwgs.User user)
    (41 Cmts.User user)
    (42 Eco1.User user)
    (43 Eco2.User user)
    (44 Edge.Cuts user)
    (45 Margin user)
    (46 B.CrtYd user)
    (47 F.CrtYd user)
    (48 B.Fab user)
    (49 F.Fab user)
  )

  (setup
    (last_trace_width 0.25)
    (trace_clearance 0.2)
    (zone_clearance 0.508)
    (zone_45_only no)
    (trace_min 0.2)
    (segment_width 0.2)
    (edge_width 0.15)
    (via_size 0.8)
    (via_drill 0.4)
    (via_min_size 0.4)
    (via_min_drill 0.3)
    (uvia_size 0.3)
    (uvia_drill 0.1)
    (uvias_allowed no)
    (uvia_min_size 0.2)
    (uvia_min_drill 0.1)
    (pcb_text_width 0.3)
    (pcb_text_size 1.5 1.5)
    (mod_edge_width 0.15)
    (mod_text_size 1 1)
    (mod_text_width 0.15)
    (pad_size 1.524 1.524)
    (pad_drill 0.762)
    (pad_to_mask_clearance 0.2)
    (aux_axis_origin 60 96)
    (visible_elements FFFFFF7F)
    (pcbplotparams
      (layerselection 0x010fc_ffffffff)
      (usegerberextensions false)
      (usegerberattributes false)
      (usegerberadvancedattributes false)
      (creategerberjobfile false)
      (excludeedgelayer true)
      (linewidth 0.100000)
      (plotframeref false)
      (viasonmask false)
      (mode 1)
      (useauxorigin false)
      (hpglpennumber 1)
      (hpglpenspeed 20)
      (hpglpendiameter 15.000000)
      (psnegative false)
      (psa4output false)
      (plotreference true)
      (plotvalue true)
      (plotinvisibletext false)
      (padsonsilk false)
      (subtractmaskfromsilk false)
      (outputformat 1)
      (mirror false)
      (drillshape 1)
      (scaleselection 1)
      (outputdirectory ""))
  )

  (net 0 "")
  (net 1 +3V3)
  (net 2 G_RST)
  (net 3 +5V)
  (net 4 G1_D7)
  (net 5 G1_RAD8)
  (net 6 G1_D5)
  (net 7 G1_RAD10)
  (net 8 GND)
  (net 9 G1_D3)
  (net 10 G1_RAD12)
  (net 11 G1_D1)
  (net 12 G1_RAD14)
  (net 13 G1BDRQ)
  (net 14 G1RDN)
  (net 15 G1DACKN)
  (net 16 CD_EMPH)
  (net 17 G1RAL8)
  (net 18 G1CS0N)
  (net 19 CD_BCK)
  (net 20 CD_SD)
  (net 21 +12V)
  (net 22 DOPEN)
  (net 23 G1_D6)
  (net 24 G1_RAD9)
  (net 25 G1_D4)
  (net 26 G1_RAD11)
  (net 27 G1_D2)
  (net 28 G1_RAD13)
  (net 29 G1_D0)
  (net 30 G1_RAD15)
  (net 31 G1WRN)
  (net 32 G1BIORDY)
  (net 33 G1BINTRQ)
  (net 34 G1RAL9)
  (net 35 G1RAL10)
  (net 36 G1CS1N)
  (net 37 CD_LRCK)
  (net 38 CDDA_CLK)
  (net 39 "Net-(J2-Pad7)")
  (net 40 "Net-(J2-Pad3)")
  (net 41 OSC)

  (net_class Default "This is the default net class."
    (clearance 0.2)
    (trace_width 0.25)
    (via_dia 0.8)
    (via_drill 0.4)
    (uvia_dia 0.3)
    (uvia_drill 0.1)
    (add_net CDDA_CLK)
    (add_net CD_BCK)
    (add_net CD_EMPH)
    (add_net CD_LRCK)
    (add_net CD_SD)
    (add_net DOPEN)
    (add_net G1BDRQ)
    (add_net G1BINTRQ)
    (add_net G1BIORDY)
    (add_net G1CS0N)
    (add_net G1CS1N)
    (add_net G1DACKN)
    (add_net G1RAL10)
    (add_net G1RAL8)
    (add_net G1RAL9)
    (add_net G1RDN)
    (add_net G1WRN)
    (add_net G1_D0)
    (add_net G1_D1)
    (add_net G1_D2)
    (add_net G1_D3)
    (add_net G1_D4)
    (add_net G1_D5)
    (add_net G1_D6)
    (add_net G1_D7)
    (add_net G1_RAD10)
    (add_net G1_RAD11)
    (add_net G1_RAD12)
    (add_net G1_RAD13)
    (add_net G1_RAD14)
    (add_net G1_RAD15)
    (add_net G1_RAD8)
    (add_net G1_RAD9)
    (add_net G_RST)
    (add_net "Net-(J2-Pad3)")
    (add_net "Net-(J2-Pad7)")
    (add_net OSC)
  )

  (net_class pwr ""
    (clearance 0.2)
    (trace_width 0.4)
    (via_dia 0.8)
    (via_drill 0.4)
    (uvia_dia 0.3)
    (uvia_drill 0.1)
    (add_net +12V)
    (add_net +5V)
    (add_net GND)
  )

  (net_class pwr3 ""
    (clearance 0.2)
    (trace_width 0.5)
    (via_dia 0.8)
    (via_drill 0.4)
    (uvia_dia 0.3)
    (uvia_drill 0.1)
    (add_net +3V3)
  )

  (module my-libs:Molex_52602_0579 (layer B.Cu) (tedit 5BAFA050) (tstamp 5BAFCFC0)
    (at 102.6668 61.1886 180)
    (path /5BAF4A30)
    (fp_text reference CN1 (at 0 -5.00126 180) (layer B.SilkS)
      (effects (font (size 1.524 1.524) (thickness 0.3048)) (justify mirror))
    )
    (fp_text value Molex_52602_0579 (at 0 4.50126 180) (layer B.SilkS) hide
      (effects (font (size 1.524 1.524) (thickness 0.3048)) (justify mirror))
    )
    (pad "" np_thru_hole circle (at 14.2494 0 180) (size 1.99898 1.99898) (drill 1.99898) (layers *.Cu *.Mask B.SilkS))
    (pad "" np_thru_hole circle (at -14.2494 0 180) (size 1.99898 1.99898) (drill 1.99898) (layers *.Cu *.Mask B.SilkS))
    (pad B25 smd rect (at 11.99896 2.10196 180) (size 0.59944 1.80086) (layers B.Cu B.Paste B.Mask)
      (net 21 +12V))
    (pad B24 smd rect (at 11.00074 2.10196 180) (size 0.59944 1.80086) (layers B.Cu B.Paste B.Mask)
      (net 8 GND))
    (pad B23 smd rect (at 9.99998 2.10196 180) (size 0.59944 1.80086) (layers B.Cu B.Paste B.Mask)
      (net 38 CDDA_CLK))
    (pad B22 smd rect (at 8.99922 2.10196 180) (size 0.59944 1.80086) (layers B.Cu B.Paste B.Mask)
      (net 37 CD_LRCK))
    (pad B21 smd rect (at 8.001 2.10196 180) (size 0.59944 1.80086) (layers B.Cu B.Paste B.Mask)
      (net 8 GND))
    (pad B20 smd rect (at 7.00024 2.10196 180) (size 0.59944 1.80086) (layers B.Cu B.Paste B.Mask)
      (net 36 G1CS1N))
    (pad B19 smd rect (at 5.99948 2.10196 180) (size 0.59944 1.80086) (layers B.Cu B.Paste B.Mask)
      (net 35 G1RAL10))
    (pad B18 smd rect (at 5.00126 2.10196 180) (size 0.59944 1.80086) (layers B.Cu B.Paste B.Mask)
      (net 8 GND))
    (pad B17 smd rect (at 4.0005 2.10196 180) (size 0.59944 1.80086) (layers B.Cu B.Paste B.Mask)
      (net 34 G1RAL9))
    (pad B16 smd rect (at 2.99974 2.10196 180) (size 0.59944 1.80086) (layers B.Cu B.Paste B.Mask)
      (net 33 G1BINTRQ))
    (pad B15 smd rect (at 1.99898 2.10196 180) (size 0.59944 1.80086) (layers B.Cu B.Paste B.Mask)
      (net 32 G1BIORDY))
    (pad B14 smd rect (at 1.00076 2.10196 180) (size 0.59944 1.80086) (layers B.Cu B.Paste B.Mask)
      (net 31 G1WRN))
    (pad B13 smd rect (at 0 2.10196 180) (size 0.59944 1.80086) (layers B.Cu B.Paste B.Mask)
      (net 8 GND))
    (pad B12 smd rect (at -1.00076 2.10196 180) (size 0.59944 1.80086) (layers B.Cu B.Paste B.Mask)
      (net 30 G1_RAD15))
    (pad B11 smd rect (at -1.99898 2.10196 180) (size 0.59944 1.80086) (layers B.Cu B.Paste B.Mask)
      (net 29 G1_D0))
    (pad B10 smd rect (at -2.99974 2.10196 180) (size 0.59944 1.80086) (layers B.Cu B.Paste B.Mask)
      (net 28 G1_RAD13))
    (pad B9 smd rect (at -4.0005 2.10196 180) (size 0.59944 1.80086) (layers B.Cu B.Paste B.Mask)
      (net 27 G1_D2))
    (pad B8 smd rect (at -5.00126 2.10196 180) (size 0.59944 1.80086) (layers B.Cu B.Paste B.Mask)
      (net 8 GND))
    (pad B7 smd rect (at -5.99948 2.10196 180) (size 0.59944 1.80086) (layers B.Cu B.Paste B.Mask)
      (net 26 G1_RAD11))
    (pad B6 smd rect (at -7.00024 2.10196 180) (size 0.59944 1.80086) (layers B.Cu B.Paste B.Mask)
      (net 25 G1_D4))
    (pad B5 smd rect (at -8.001 2.10196 180) (size 0.59944 1.80086) (layers B.Cu B.Paste B.Mask)
      (net 24 G1_RAD9))
    (pad B4 smd rect (at -8.99922 2.10196 180) (size 0.59944 1.80086) (layers B.Cu B.Paste B.Mask)
      (net 23 G1_D6))
    (pad B3 smd rect (at -9.99998 2.10196 180) (size 0.59944 1.80086) (layers B.Cu B.Paste B.Mask)
      (net 3 +5V))
    (pad B2 smd rect (at -11.00074 2.10196 180) (size 0.59944 1.80086) (layers B.Cu B.Paste B.Mask)
      (net 22 DOPEN))
    (pad B1 smd rect (at -11.99896 2.10196 180) (size 0.59944 1.80086) (layers B.Cu B.Paste B.Mask)
      (net 1 +3V3))
    (pad A25 smd rect (at 12.0015 -2.10196 180) (size 0.59944 1.80086) (layers B.Cu B.Paste B.Mask)
      (net 21 +12V))
    (pad A24 smd rect (at 11.00074 -2.10196 180) (size 0.59944 1.80086) (layers B.Cu B.Paste B.Mask)
      (net 8 GND))
    (pad A23 smd rect (at 10.00252 -2.10196 180) (size 0.59944 1.80086) (layers B.Cu B.Paste B.Mask)
      (net 20 CD_SD))
    (pad A22 smd rect (at 9.00176 -2.10196 180) (size 0.59944 1.80086) (layers B.Cu B.Paste B.Mask)
      (net 19 CD_BCK))
    (pad A21 smd rect (at 8.001 -2.10196 180) (size 0.59944 1.80086) (layers B.Cu B.Paste B.Mask)
      (net 8 GND))
    (pad A20 smd rect (at 7.00024 -2.10196 180) (size 0.59944 1.80086) (layers B.Cu B.Paste B.Mask)
      (net 18 G1CS0N))
    (pad A19 smd rect (at 6.00202 -2.10196 180) (size 0.59944 1.80086) (layers B.Cu B.Paste B.Mask)
      (net 17 G1RAL8))
    (pad A18 smd rect (at 5.00126 -2.10196 180) (size 0.59944 1.80086) (layers B.Cu B.Paste B.Mask)
      (net 8 GND))
    (pad A17 smd rect (at 4.0005 -2.10196 180) (size 0.59944 1.80086) (layers B.Cu B.Paste B.Mask)
      (net 16 CD_EMPH))
    (pad A16 smd rect (at 3.00228 -2.10196 180) (size 0.59944 1.80086) (layers B.Cu B.Paste B.Mask)
      (net 15 G1DACKN))
    (pad A15 smd rect (at 2.00152 -2.10196 180) (size 0.59944 1.80086) (layers B.Cu B.Paste B.Mask)
      (net 14 G1RDN))
    (pad A14 smd rect (at 1.00076 -2.10196 180) (size 0.59944 1.80086) (layers B.Cu B.Paste B.Mask)
      (net 13 G1BDRQ))
    (pad A13 smd rect (at 0.00254 -2.10196 180) (size 0.59944 1.80086) (layers B.Cu B.Paste B.Mask)
      (net 8 GND))
    (pad A12 smd rect (at -0.99822 -2.10196 180) (size 0.59944 1.80086) (layers B.Cu B.Paste B.Mask)
      (net 12 G1_RAD14))
    (pad A11 smd rect (at -1.99898 -2.10196 180) (size 0.59944 1.80086) (layers B.Cu B.Paste B.Mask)
      (net 11 G1_D1))
    (pad A10 smd rect (at -2.99974 -2.10196 180) (size 0.59944 1.80086) (layers B.Cu B.Paste B.Mask)
      (net 10 G1_RAD12))
    (pad A9 smd rect (at -3.99796 -2.10196 180) (size 0.59944 1.80086) (layers B.Cu B.Paste B.Mask)
      (net 9 G1_D3))
    (pad A8 smd rect (at -4.99872 -2.10196 180) (size 0.59944 1.80086) (layers B.Cu B.Paste B.Mask)
      (net 8 GND))
    (pad A7 smd rect (at -5.99948 -2.10196 180) (size 0.59944 1.80086) (layers B.Cu B.Paste B.Mask)
      (net 7 G1_RAD10))
    (pad A6 smd rect (at -6.9977 -2.10196 180) (size 0.59944 1.80086) (layers B.Cu B.Paste B.Mask)
      (net 6 G1_D5))
    (pad A5 smd rect (at -7.99846 -2.10196 180) (size 0.59944 1.80086) (layers B.Cu B.Paste B.Mask)
      (net 5 G1_RAD8))
    (pad A4 smd rect (at -8.99922 -2.10196 180) (size 0.59944 1.80086) (layers B.Cu B.Paste B.Mask)
      (net 4 G1_D7))
    (pad A3 smd rect (at -9.99744 -2.10196 180) (size 0.59944 1.80086) (layers B.Cu B.Paste B.Mask)
      (net 3 +5V))
    (pad A2 smd rect (at -10.9982 -2.10196 180) (size 0.59944 1.80086) (layers B.Cu B.Paste B.Mask)
      (net 2 G_RST))
    (pad A1 smd rect (at -11.99896 -2.09942 180) (size 0.59944 1.80086) (layers B.Cu B.Paste B.Mask)
      (net 1 +3V3))
    (model ${KIPRJMOD}/packages3d/52602-0579.wrl
      (offset (xyz 0 0 3.784599943161011))
      (scale (xyz 0.393701 0.393701 0.393701))
      (rotate (xyz -90 0 0))
    )
  )

  (module Pin_Headers:Pin_Header_Straight_2x17_Pitch2.54mm (layer F.Cu) (tedit 59650533) (tstamp 5BAFCFF8)
    (at 115.5954 89.027 270)
    (descr "Through hole straight pin header, 2x17, 2.54mm pitch, double rows")
    (tags "Through hole pin header THT 2x17 2.54mm double row")
    (path /5BB17E07)
    (fp_text reference J1 (at 1.27 -2.33 270) (layer F.SilkS)
      (effects (font (size 1 1) (thickness 0.15)))
    )
    (fp_text value Conn_02x34_Row_Letter_First (at 1.27 42.97 270) (layer F.Fab)
      (effects (font (size 1 1) (thickness 0.15)))
    )
    (fp_text user %R (at 1.27 20.32) (layer F.Fab)
      (effects (font (size 1 1) (thickness 0.15)))
    )
    (fp_line (start 4.35 -1.8) (end -1.8 -1.8) (layer F.CrtYd) (width 0.05))
    (fp_line (start 4.35 42.45) (end 4.35 -1.8) (layer F.CrtYd) (width 0.05))
    (fp_line (start -1.8 42.45) (end 4.35 42.45) (layer F.CrtYd) (width 0.05))
    (fp_line (start -1.8 -1.8) (end -1.8 42.45) (layer F.CrtYd) (width 0.05))
    (fp_line (start -1.33 -1.33) (end 0 -1.33) (layer F.SilkS) (width 0.12))
    (fp_line (start -1.33 0) (end -1.33 -1.33) (layer F.SilkS) (width 0.12))
    (fp_line (start 1.27 -1.33) (end 3.87 -1.33) (layer F.SilkS) (width 0.12))
    (fp_line (start 1.27 1.27) (end 1.27 -1.33) (layer F.SilkS) (width 0.12))
    (fp_line (start -1.33 1.27) (end 1.27 1.27) (layer F.SilkS) (width 0.12))
    (fp_line (start 3.87 -1.33) (end 3.87 41.97) (layer F.SilkS) (width 0.12))
    (fp_line (start -1.33 1.27) (end -1.33 41.97) (layer F.SilkS) (width 0.12))
    (fp_line (start -1.33 41.97) (end 3.87 41.97) (layer F.SilkS) (width 0.12))
    (fp_line (start -1.27 0) (end 0 -1.27) (layer F.Fab) (width 0.1))
    (fp_line (start -1.27 41.91) (end -1.27 0) (layer F.Fab) (width 0.1))
    (fp_line (start 3.81 41.91) (end -1.27 41.91) (layer F.Fab) (width 0.1))
    (fp_line (start 3.81 -1.27) (end 3.81 41.91) (layer F.Fab) (width 0.1))
    (fp_line (start 0 -1.27) (end 3.81 -1.27) (layer F.Fab) (width 0.1))
    (pad 34 thru_hole oval (at 2.54 40.64 270) (size 1.7 1.7) (drill 1) (layers *.Cu *.Mask)
      (net 38 CDDA_CLK))
    (pad 33 thru_hole oval (at 0 40.64 270) (size 1.7 1.7) (drill 1) (layers *.Cu *.Mask)
      (net 20 CD_SD))
    (pad 32 thru_hole oval (at 2.54 38.1 270) (size 1.7 1.7) (drill 1) (layers *.Cu *.Mask)
      (net 37 CD_LRCK))
    (pad 31 thru_hole oval (at 0 38.1 270) (size 1.7 1.7) (drill 1) (layers *.Cu *.Mask)
      (net 19 CD_BCK))
    (pad 30 thru_hole oval (at 2.54 35.56 270) (size 1.7 1.7) (drill 1) (layers *.Cu *.Mask)
      (net 36 G1CS1N))
    (pad 29 thru_hole oval (at 0 35.56 270) (size 1.7 1.7) (drill 1) (layers *.Cu *.Mask)
      (net 18 G1CS0N))
    (pad 28 thru_hole oval (at 2.54 33.02 270) (size 1.7 1.7) (drill 1) (layers *.Cu *.Mask)
      (net 35 G1RAL10))
    (pad 27 thru_hole oval (at 0 33.02 270) (size 1.7 1.7) (drill 1) (layers *.Cu *.Mask)
      (net 17 G1RAL8))
    (pad 26 thru_hole oval (at 2.54 30.48 270) (size 1.7 1.7) (drill 1) (layers *.Cu *.Mask)
      (net 34 G1RAL9))
    (pad 25 thru_hole oval (at 0 30.48 270) (size 1.7 1.7) (drill 1) (layers *.Cu *.Mask)
      (net 16 CD_EMPH))
    (pad 24 thru_hole oval (at 2.54 27.94 270) (size 1.7 1.7) (drill 1) (layers *.Cu *.Mask)
      (net 33 G1BINTRQ))
    (pad 23 thru_hole oval (at 0 27.94 270) (size 1.7 1.7) (drill 1) (layers *.Cu *.Mask)
      (net 15 G1DACKN))
    (pad 22 thru_hole oval (at 2.54 25.4 270) (size 1.7 1.7) (drill 1) (layers *.Cu *.Mask)
      (net 32 G1BIORDY))
    (pad 21 thru_hole oval (at 0 25.4 270) (size 1.7 1.7) (drill 1) (layers *.Cu *.Mask)
      (net 14 G1RDN))
    (pad 20 thru_hole oval (at 2.54 22.86 270) (size 1.7 1.7) (drill 1) (layers *.Cu *.Mask)
      (net 31 G1WRN))
    (pad 19 thru_hole oval (at 0 22.86 270) (size 1.7 1.7) (drill 1) (layers *.Cu *.Mask)
      (net 13 G1BDRQ))
    (pad 18 thru_hole oval (at 2.54 20.32 270) (size 1.7 1.7) (drill 1) (layers *.Cu *.Mask)
      (net 30 G1_RAD15))
    (pad 17 thru_hole oval (at 0 20.32 270) (size 1.7 1.7) (drill 1) (layers *.Cu *.Mask)
      (net 12 G1_RAD14))
    (pad 16 thru_hole oval (at 2.54 17.78 270) (size 1.7 1.7) (drill 1) (layers *.Cu *.Mask)
      (net 29 G1_D0))
    (pad 15 thru_hole oval (at 0 17.78 270) (size 1.7 1.7) (drill 1) (layers *.Cu *.Mask)
      (net 11 G1_D1))
    (pad 14 thru_hole oval (at 2.54 15.24 270) (size 1.7 1.7) (drill 1) (layers *.Cu *.Mask)
      (net 28 G1_RAD13))
    (pad 13 thru_hole oval (at 0 15.24 270) (size 1.7 1.7) (drill 1) (layers *.Cu *.Mask)
      (net 10 G1_RAD12))
    (pad 12 thru_hole oval (at 2.54 12.7 270) (size 1.7 1.7) (drill 1) (layers *.Cu *.Mask)
      (net 27 G1_D2))
    (pad 11 thru_hole oval (at 0 12.7 270) (size 1.7 1.7) (drill 1) (layers *.Cu *.Mask)
      (net 9 G1_D3))
    (pad 10 thru_hole oval (at 2.54 10.16 270) (size 1.7 1.7) (drill 1) (layers *.Cu *.Mask)
      (net 26 G1_RAD11))
    (pad 9 thru_hole oval (at 0 10.16 270) (size 1.7 1.7) (drill 1) (layers *.Cu *.Mask)
      (net 7 G1_RAD10))
    (pad 8 thru_hole oval (at 2.54 7.62 270) (size 1.7 1.7) (drill 1) (layers *.Cu *.Mask)
      (net 25 G1_D4))
    (pad 7 thru_hole oval (at 0 7.62 270) (size 1.7 1.7) (drill 1) (layers *.Cu *.Mask)
      (net 6 G1_D5))
    (pad 6 thru_hole oval (at 2.54 5.08 270) (size 1.7 1.7) (drill 1) (layers *.Cu *.Mask)
      (net 24 G1_RAD9))
    (pad 5 thru_hole oval (at 0 5.08 270) (size 1.7 1.7) (drill 1) (layers *.Cu *.Mask)
      (net 5 G1_RAD8))
    (pad 4 thru_hole oval (at 2.54 2.54 270) (size 1.7 1.7) (drill 1) (layers *.Cu *.Mask)
      (net 23 G1_D6))
    (pad 3 thru_hole oval (at 0 2.54 270) (size 1.7 1.7) (drill 1) (layers *.Cu *.Mask)
      (net 4 G1_D7))
    (pad 2 thru_hole oval (at 2.54 0 270) (size 1.7 1.7) (drill 1) (layers *.Cu *.Mask)
      (net 22 DOPEN))
    (pad 1 thru_hole rect (at 0 0 270) (size 1.7 1.7) (drill 1) (layers *.Cu *.Mask)
      (net 2 G_RST))
    (model ${KISYS3DMOD}/Pin_Headers.3dshapes/Pin_Header_Straight_2x17_Pitch2.54mm.wrl
      (at (xyz 0 0 0))
      (scale (xyz 1 1 1))
      (rotate (xyz 0 0 0))
    )
  )

  (module Capacitors_SMD:C_0603_HandSoldering (layer F.Cu) (tedit 5BAFA3D6) (tstamp 5BAFA74E)
    (at 65.659 65.9384 270)
    (descr "Capacitor SMD 0603, hand soldering")
    (tags "capacitor 0603")
    (path /5BB38980)
    (attr smd)
    (fp_text reference C1 (at 0 -1.25 270) (layer F.SilkS)
      (effects (font (size 1 1) (thickness 0.15)))
    )
    (fp_text value C_Small (at 0 1.5 270) (layer F.Fab)
      (effects (font (size 1 1) (thickness 0.15)))
    )
    (fp_line (start 1.8 0.65) (end -1.8 0.65) (layer F.CrtYd) (width 0.05))
    (fp_line (start 1.8 0.65) (end 1.8 -0.65) (layer F.CrtYd) (width 0.05))
    (fp_line (start -1.8 -0.65) (end -1.8 0.65) (layer F.CrtYd) (width 0.05))
    (fp_line (start -1.8 -0.65) (end 1.8 -0.65) (layer F.CrtYd) (width 0.05))
    (fp_line (start 0.35 0.6) (end -0.35 0.6) (layer F.SilkS) (width 0.12))
    (fp_line (start -0.35 -0.6) (end 0.35 -0.6) (layer F.SilkS) (width 0.12))
    (fp_line (start -0.8 -0.4) (end 0.8 -0.4) (layer F.Fab) (width 0.1))
    (fp_line (start 0.8 -0.4) (end 0.8 0.4) (layer F.Fab) (width 0.1))
    (fp_line (start 0.8 0.4) (end -0.8 0.4) (layer F.Fab) (width 0.1))
    (fp_line (start -0.8 0.4) (end -0.8 -0.4) (layer F.Fab) (width 0.1))
    (fp_text user %R (at 0 -1.25 270) (layer F.Fab)
      (effects (font (size 1 1) (thickness 0.15)))
    )
    (pad 2 smd rect (at 0.95 0 270) (size 1.2 0.75) (layers F.Cu F.Paste F.Mask)
      (net 8 GND))
    (pad 1 smd rect (at -0.95 0 270) (size 1.2 0.75) (layers F.Cu F.Paste F.Mask)
      (net 1 +3V3))
    (model Capacitors_SMD.3dshapes/C_0603.wrl
      (at (xyz 0 0 0))
      (scale (xyz 1 1 1))
      (rotate (xyz 0 0 0))
    )
  )

  (module Pin_Headers:Pin_Header_Straight_2x06_Pitch2.54mm (layer F.Cu) (tedit 59650532) (tstamp 5BB0C38F)
    (at 66.04 91.6686 180)
    (descr "Through hole straight pin header, 2x06, 2.54mm pitch, double rows")
    (tags "Through hole pin header THT 2x06 2.54mm double row")
    (path /5BB3F2A3)
    (fp_text reference J2 (at 1.27 -2.33 180) (layer F.SilkS)
      (effects (font (size 1 1) (thickness 0.15)))
    )
    (fp_text value Conn_02x06_Odd_Even (at 1.27 15.03 180) (layer F.Fab)
      (effects (font (size 1 1) (thickness 0.15)))
    )
    (fp_text user %R (at 1.27 6.35 270) (layer F.Fab)
      (effects (font (size 1 1) (thickness 0.15)))
    )
    (fp_line (start 4.35 -1.8) (end -1.8 -1.8) (layer F.CrtYd) (width 0.05))
    (fp_line (start 4.35 14.5) (end 4.35 -1.8) (layer F.CrtYd) (width 0.05))
    (fp_line (start -1.8 14.5) (end 4.35 14.5) (layer F.CrtYd) (width 0.05))
    (fp_line (start -1.8 -1.8) (end -1.8 14.5) (layer F.CrtYd) (width 0.05))
    (fp_line (start -1.33 -1.33) (end 0 -1.33) (layer F.SilkS) (width 0.12))
    (fp_line (start -1.33 0) (end -1.33 -1.33) (layer F.SilkS) (width 0.12))
    (fp_line (start 1.27 -1.33) (end 3.87 -1.33) (layer F.SilkS) (width 0.12))
    (fp_line (start 1.27 1.27) (end 1.27 -1.33) (layer F.SilkS) (width 0.12))
    (fp_line (start -1.33 1.27) (end 1.27 1.27) (layer F.SilkS) (width 0.12))
    (fp_line (start 3.87 -1.33) (end 3.87 14.03) (layer F.SilkS) (width 0.12))
    (fp_line (start -1.33 1.27) (end -1.33 14.03) (layer F.SilkS) (width 0.12))
    (fp_line (start -1.33 14.03) (end 3.87 14.03) (layer F.SilkS) (width 0.12))
    (fp_line (start -1.27 0) (end 0 -1.27) (layer F.Fab) (width 0.1))
    (fp_line (start -1.27 13.97) (end -1.27 0) (layer F.Fab) (width 0.1))
    (fp_line (start 3.81 13.97) (end -1.27 13.97) (layer F.Fab) (width 0.1))
    (fp_line (start 3.81 -1.27) (end 3.81 13.97) (layer F.Fab) (width 0.1))
    (fp_line (start 0 -1.27) (end 3.81 -1.27) (layer F.Fab) (width 0.1))
    (pad 12 thru_hole oval (at 2.54 12.7 180) (size 1.7 1.7) (drill 1) (layers *.Cu *.Mask)
      (net 8 GND))
    (pad 11 thru_hole oval (at 0 12.7 180) (size 1.7 1.7) (drill 1) (layers *.Cu *.Mask)
      (net 1 +3V3))
    (pad 10 thru_hole oval (at 2.54 10.16 180) (size 1.7 1.7) (drill 1) (layers *.Cu *.Mask)
      (net 8 GND))
    (pad 9 thru_hole oval (at 0 10.16 180) (size 1.7 1.7) (drill 1) (layers *.Cu *.Mask)
      (net 1 +3V3))
    (pad 8 thru_hole oval (at 2.54 7.62 180) (size 1.7 1.7) (drill 1) (layers *.Cu *.Mask)
      (net 8 GND))
    (pad 7 thru_hole oval (at 0 7.62 180) (size 1.7 1.7) (drill 1) (layers *.Cu *.Mask)
      (net 39 "Net-(J2-Pad7)"))
    (pad 6 thru_hole oval (at 2.54 5.08 180) (size 1.7 1.7) (drill 1) (layers *.Cu *.Mask)
      (net 8 GND))
    (pad 5 thru_hole oval (at 0 5.08 180) (size 1.7 1.7) (drill 1) (layers *.Cu *.Mask)
      (net 3 +5V))
    (pad 4 thru_hole oval (at 2.54 2.54 180) (size 1.7 1.7) (drill 1) (layers *.Cu *.Mask)
      (net 8 GND))
    (pad 3 thru_hole oval (at 0 2.54 180) (size 1.7 1.7) (drill 1) (layers *.Cu *.Mask)
      (net 40 "Net-(J2-Pad3)"))
    (pad 2 thru_hole oval (at 2.54 0 180) (size 1.7 1.7) (drill 1) (layers *.Cu *.Mask)
      (net 8 GND))
    (pad 1 thru_hole rect (at 0 0 180) (size 1.7 1.7) (drill 1) (layers *.Cu *.Mask)
      (net 41 OSC))
    (model ${KISYS3DMOD}/Pin_Headers.3dshapes/Pin_Header_Straight_2x06_Pitch2.54mm.wrl
      (at (xyz 0 0 0))
      (scale (xyz 1 1 1))
      (rotate (xyz 0 0 0))
    )
  )

  (module Oscillators:Oscillator_SMD_SeikoEpson_SG210-4pin_2.5x2.0mm_HandSoldering (layer F.Cu) (tedit 58CD3345) (tstamp 5BAFA785)
    (at 69.7738 65.8622 270)
    (descr "SMD Crystal Oscillator Seiko Epson SG-210 https://support.epson.biz/td/api/doc_check.php?mode=dl&lang=en&Parts=SG-210SED, hand-soldering, 2.5x2.0mm^2 package")
    (tags "SMD SMT crystal oscillator hand-soldering")
    (path /5BB38694)
    (attr smd)
    (fp_text reference X1 (at 0 -2.55 270) (layer F.SilkS)
      (effects (font (size 1 1) (thickness 0.15)))
    )
    (fp_text value SG-210STF (at 0 2.55 270) (layer F.Fab)
      (effects (font (size 1 1) (thickness 0.15)))
    )
    (fp_circle (center 0 0) (end 0.233333 0) (layer F.Adhes) (width 0.466667))
    (fp_circle (center 0 0) (end 0.533333 0) (layer F.Adhes) (width 0.333333))
    (fp_circle (center 0 0) (end 0.833333 0) (layer F.Adhes) (width 0.333333))
    (fp_circle (center 0 0) (end 1 0) (layer F.Adhes) (width 0.1))
    (fp_line (start 2.2 -1.8) (end -2.2 -1.8) (layer F.CrtYd) (width 0.05))
    (fp_line (start 2.2 1.8) (end 2.2 -1.8) (layer F.CrtYd) (width 0.05))
    (fp_line (start -2.2 1.8) (end 2.2 1.8) (layer F.CrtYd) (width 0.05))
    (fp_line (start -2.2 -1.8) (end -2.2 1.8) (layer F.CrtYd) (width 0.05))
    (fp_line (start -2.15 1.75) (end 2.15 1.75) (layer F.SilkS) (width 0.12))
    (fp_line (start -2.15 -1.75) (end -2.15 1.75) (layer F.SilkS) (width 0.12))
    (fp_line (start -1.25 0) (end -0.25 1) (layer F.Fab) (width 0.1))
    (fp_line (start 1.25 -1) (end -1.25 -1) (layer F.Fab) (width 0.1))
    (fp_line (start 1.25 1) (end 1.25 -1) (layer F.Fab) (width 0.1))
    (fp_line (start -1.25 1) (end 1.25 1) (layer F.Fab) (width 0.1))
    (fp_line (start -1.25 -1) (end -1.25 1) (layer F.Fab) (width 0.1))
    (fp_text user %R (at 0 0 270) (layer F.Fab)
      (effects (font (size 0.6 0.6) (thickness 0.09)))
    )
    (pad 4 smd rect (at -1.125 -0.875 270) (size 1.65 1.35) (layers F.Cu F.Paste F.Mask)
      (net 1 +3V3))
    (pad 3 smd rect (at 1.125 -0.875 270) (size 1.65 1.35) (layers F.Cu F.Paste F.Mask)
      (net 41 OSC))
    (pad 2 smd rect (at 1.125 0.875 270) (size 1.65 1.35) (layers F.Cu F.Paste F.Mask)
      (net 8 GND))
    (pad 1 smd rect (at -1.125 0.875 270) (size 1.65 1.35) (layers F.Cu F.Paste F.Mask)
      (net 1 +3V3))
    (model ${KISYS3DMOD}/Oscillators.3dshapes/Oscillator_SMD_SeikoEpson_SG210-4pin_2.5x2.0mm_HandSoldering.wrl
      (at (xyz 0 0 0))
      (scale (xyz 1 1 1))
      (rotate (xyz 0 0 0))
    )
    (model ${KIPRJMOD}/packages3d/crystal_sg210.wrl
      (at (xyz 0 0 0))
      (scale (xyz 1 1 1))
      (rotate (xyz 0 0 0))
    )
  )

  (gr_text "Dreamcast ODE Breakout Board" (at 80.1116 56.7944) (layer F.SilkS)
    (effects (font (size 1.5 1.5) (thickness 0.3)))
  )
  (gr_text "3.3V\n3.3V\n\n5V\n\nXOUT" (at 67.5386 85.3948) (layer F.SilkS) (tstamp 5BAFABEB)
    (effects (font (size 1.5 1.5) (thickness 0.3)) (justify left))
  )
  (gr_text "<— all GND" (at 63.373 70.7136 90) (layer F.SilkS)
    (effects (font (size 1.5 1.5) (thickness 0.3)))
  )
  (gr_line (start 73.9394 74.9808) (end 116.9416 74.9808) (layer F.SilkS) (width 0.2))
  (gr_text "CD_SE\nCD_BCK\nG1CS0N\nG1RAL8\nCD_EMPH\nG1DACKN\nG1RDN\nG1BDRQ\nG1_RAD14\nG1_D1\nG1_RAD12\nG1_D3\nG1_RAD10\nG1_D5\nG1_RAD8\nG1_D7\nG_RST" (at 95.3516 63.2206 90) (layer F.SilkS) (tstamp 5BAFA7B4)
    (effects (font (size 1.5 1.5) (thickness 0.3)) (justify right))
  )
  (gr_text "CDDA_CLK\nCD_LRCK\nG1CS1N\nG1RAL10\nG1RAL9\nG1BINTRQ\nG1BIORDY\nG1WRN\nG1_RAD15\nG1_D0\nG1_RAD13\nG1_D2\nG1_RAD11\nG1_D4\nG1_RAD9\nG1_D6\nDOPEN" (at 95.3516 86.8172 90) (layer F.SilkS)
    (effects (font (size 1.5 1.5) (thickness 0.3)) (justify left))
  )
  (gr_line (start 60 96) (end 60 54) (layer Edge.Cuts) (width 0.15))
  (gr_line (start 120 96) (end 60 96) (layer Edge.Cuts) (width 0.15))
  (gr_line (start 120 54) (end 120 96) (layer Edge.Cuts) (width 0.15))
  (gr_line (start 60 54) (end 120 54) (layer Edge.Cuts) (width 0.15))

  (segment (start 68.673 64.963) (end 68.8988 64.7372) (width 0.4) (layer F.Cu) (net 1) (tstamp 5BAFA7C9))
  (segment (start 68.8988 64.7372) (end 70.6488 64.7372) (width 0.4) (layer F.Cu) (net 1) (tstamp 5BAFA7C6))
  (via (at 114.6556 57.023) (size 0.8) (drill 0.4) (layers F.Cu B.Cu) (net 1))
  (segment (start 70.6488 64.5872) (end 70.6488 64.7372) (width 0.4) (layer F.Cu) (net 1) (tstamp 5BAFA7C3))
  (segment (start 62.249999 62.362401) (end 62.249999 72.263) (width 0.4) (layer F.Cu) (net 1))
  (segment (start 62.249999 71.940401) (end 62.249999 72.263) (width 0.4) (layer F.Cu) (net 1))
  (segment (start 62.249999 75.178599) (end 62.249999 74.2442) (width 0.4) (layer F.Cu) (net 1))
  (segment (start 62.249999 72.263) (end 62.249999 74.2442) (width 0.4) (layer F.Cu) (net 1))
  (segment (start 114.6556 57.023) (end 67.5894 57.023) (width 0.5) (layer F.Cu) (net 1))
  (segment (start 67.5894 57.023) (end 62.249999 62.362401) (width 0.5) (layer F.Cu) (net 1))
  (segment (start 62.249999 75.178599) (end 66.04 78.9686) (width 0.5) (layer F.Cu) (net 1))
  (segment (start 62.249999 62.362401) (end 62.249999 75.178599) (width 0.5) (layer F.Cu) (net 1))
  (segment (start 66.04 78.9686) (end 66.04 81.5086) (width 0.5) (layer F.Cu) (net 1))
  (segment (start 114.66576 57.03316) (end 114.6556 57.023) (width 0.5) (layer B.Cu) (net 1))
  (segment (start 114.66576 59.08664) (end 114.66576 57.03316) (width 0.5) (layer B.Cu) (net 1))
  (segment (start 114.66576 59.08664) (end 114.66576 63.28802) (width 0.5) (layer B.Cu) (net 1))
  (segment (start 62.249999 62.362401) (end 62.260801 62.362401) (width 0.5) (layer F.Cu) (net 1))
  (segment (start 68.6476 64.9884) (end 68.8988 64.7372) (width 0.5) (layer F.Cu) (net 1) (tstamp 5BAFA7CF))
  (segment (start 65.659 64.9884) (end 68.6476 64.9884) (width 0.5) (layer F.Cu) (net 1) (tstamp 5BAFA7D2))
  (segment (start 64.784 64.9884) (end 65.659 64.9884) (width 0.5) (layer F.Cu) (net 1))
  (segment (start 62.249999 62.454399) (end 64.784 64.9884) (width 0.5) (layer F.Cu) (net 1))
  (segment (start 62.249999 62.362401) (end 62.249999 62.454399) (width 0.5) (layer F.Cu) (net 1))
  (segment (start 113.665 63.29056) (end 113.665 81.2546) (width 0.25) (layer B.Cu) (net 2))
  (segment (start 115.5954 83.185) (end 115.5954 89.027) (width 0.25) (layer B.Cu) (net 2))
  (segment (start 113.665 81.2546) (end 115.5954 83.185) (width 0.25) (layer B.Cu) (net 2))
  (segment (start 112.66678 63.28802) (end 112.66424 63.29056) (width 0.4) (layer B.Cu) (net 3))
  (segment (start 112.66678 59.08664) (end 112.66678 63.28802) (width 0.4) (layer B.Cu) (net 3))
  (segment (start 112.666779 57.786209) (end 112.66678 59.08664) (width 0.4) (layer B.Cu) (net 3))
  (segment (start 69.2658 76.9112) (end 90.3224 55.8546) (width 0.4) (layer B.Cu) (net 3))
  (segment (start 69.2658 84.564881) (end 69.2658 76.9112) (width 0.4) (layer B.Cu) (net 3))
  (segment (start 110.73517 55.8546) (end 112.666779 57.786209) (width 0.4) (layer B.Cu) (net 3))
  (segment (start 67.242081 86.5886) (end 69.2658 84.564881) (width 0.4) (layer B.Cu) (net 3))
  (segment (start 90.3224 55.8546) (end 110.73517 55.8546) (width 0.4) (layer B.Cu) (net 3))
  (segment (start 66.04 86.5886) (end 67.242081 86.5886) (width 0.4) (layer B.Cu) (net 3))
  (segment (start 113.0554 89.027) (end 113.0554 82.94878) (width 0.25) (layer B.Cu) (net 4))
  (segment (start 113.0554 82.94878) (end 111.66602 81.5594) (width 0.25) (layer B.Cu) (net 4))
  (segment (start 111.66602 63.29056) (end 111.66602 81.5594) (width 0.25) (layer B.Cu) (net 4))
  (segment (start 110.66526 88.87714) (end 110.5154 89.027) (width 0.25) (layer B.Cu) (net 5))
  (segment (start 110.66526 63.29056) (end 110.66526 88.87714) (width 0.25) (layer B.Cu) (net 5))
  (segment (start 109.6645 87.3379) (end 107.9754 89.027) (width 0.25) (layer B.Cu) (net 6))
  (segment (start 109.6645 63.29056) (end 109.6645 87.3379) (width 0.25) (layer B.Cu) (net 6))
  (segment (start 108.66628 85.79612) (end 105.4354 89.027) (width 0.25) (layer B.Cu) (net 7))
  (segment (start 108.66628 63.29056) (end 108.66628 85.79612) (width 0.25) (layer B.Cu) (net 7))
  (segment (start 91.66606 59.08664) (end 91.66606 63.29056) (width 0.4) (layer B.Cu) (net 8))
  (segment (start 94.6658 59.08664) (end 94.6658 63.29056) (width 0.4) (layer B.Cu) (net 8))
  (segment (start 97.66554 59.08664) (end 97.66554 63.29056) (width 0.4) (layer B.Cu) (net 8))
  (segment (start 102.6668 63.28802) (end 102.66426 63.29056) (width 0.4) (layer B.Cu) (net 8))
  (segment (start 102.6668 59.08664) (end 102.6668 63.28802) (width 0.4) (layer B.Cu) (net 8))
  (segment (start 107.66806 63.28802) (end 107.66552 63.29056) (width 0.4) (layer B.Cu) (net 8))
  (segment (start 107.66806 59.08664) (end 107.66806 63.28802) (width 0.4) (layer B.Cu) (net 8))
  (segment (start 68.7746 66.863) (end 68.8988 66.9872) (width 0.4) (layer F.Cu) (net 8) (tstamp 5BAFA7CC))
  (segment (start 63.5 81.5086) (end 63.5 84.0486) (width 0.4) (layer F.Cu) (net 8))
  (segment (start 63.5 84.0486) (end 63.5 86.5886) (width 0.4) (layer F.Cu) (net 8))
  (segment (start 63.5 86.5886) (end 63.5 89.1286) (width 0.4) (layer F.Cu) (net 8))
  (segment (start 63.5 89.1286) (end 63.5 91.6686) (width 0.4) (layer F.Cu) (net 8))
  (segment (start 68.8 66.8884) (end 68.8988 66.9872) (width 0.4) (layer F.Cu) (net 8) (tstamp 5BAFA7BD))
  (segment (start 65.659 66.8884) (end 68.8 66.8884) (width 0.4) (layer F.Cu) (net 8) (tstamp 5BAFA7BA))
  (via (at 65.659 68.5038) (size 0.8) (drill 0.4) (layers F.Cu B.Cu) (net 8))
  (segment (start 63.5 70.6628) (end 65.659 68.5038) (width 0.4) (layer B.Cu) (net 8))
  (segment (start 63.5 78.9686) (end 63.5 70.6628) (width 0.4) (layer B.Cu) (net 8))
  (segment (start 65.659 68.5038) (end 65.659 66.8884) (width 0.4) (layer F.Cu) (net 8))
  (segment (start 106.66476 85.25764) (end 102.8954 89.027) (width 0.25) (layer B.Cu) (net 9))
  (segment (start 106.66476 63.29056) (end 106.66476 85.25764) (width 0.25) (layer B.Cu) (net 9))
  (segment (start 105.66654 83.71586) (end 100.3554 89.027) (width 0.25) (layer B.Cu) (net 10))
  (segment (start 105.66654 63.29056) (end 105.66654 83.71586) (width 0.25) (layer B.Cu) (net 10))
  (segment (start 104.66578 82.17662) (end 97.8154 89.027) (width 0.25) (layer B.Cu) (net 11))
  (segment (start 104.66578 63.29056) (end 104.66578 82.17662) (width 0.25) (layer B.Cu) (net 11))
  (segment (start 103.66502 80.63738) (end 95.2754 89.027) (width 0.25) (layer B.Cu) (net 12))
  (segment (start 103.66502 63.29056) (end 103.66502 80.63738) (width 0.25) (layer B.Cu) (net 12))
  (segment (start 101.66604 80.09636) (end 92.7354 89.027) (width 0.25) (layer B.Cu) (net 13))
  (segment (start 101.66604 63.29056) (end 101.66604 80.09636) (width 0.25) (layer B.Cu) (net 13))
  (segment (start 100.66528 78.55712) (end 90.1954 89.027) (width 0.25) (layer B.Cu) (net 14))
  (segment (start 100.66528 63.29056) (end 100.66528 78.55712) (width 0.25) (layer B.Cu) (net 14))
  (segment (start 99.66452 77.01788) (end 87.6554 89.027) (width 0.25) (layer B.Cu) (net 15))
  (segment (start 99.66452 63.29056) (end 99.66452 77.01788) (width 0.25) (layer B.Cu) (net 15))
  (segment (start 98.6663 75.4761) (end 85.1154 89.027) (width 0.25) (layer B.Cu) (net 16))
  (segment (start 98.6663 63.29056) (end 98.6663 75.4761) (width 0.25) (layer B.Cu) (net 16))
  (segment (start 96.66478 74.93762) (end 82.5754 89.027) (width 0.25) (layer B.Cu) (net 17))
  (segment (start 96.66478 63.29056) (end 96.66478 74.93762) (width 0.25) (layer B.Cu) (net 17))
  (segment (start 95.66656 73.39584) (end 80.0354 89.027) (width 0.25) (layer B.Cu) (net 18))
  (segment (start 95.66656 63.29056) (end 95.66656 73.39584) (width 0.25) (layer B.Cu) (net 18))
  (segment (start 93.66504 72.85736) (end 77.4954 89.027) (width 0.25) (layer B.Cu) (net 19))
  (segment (start 93.66504 63.29056) (end 93.66504 72.85736) (width 0.25) (layer B.Cu) (net 19))
  (segment (start 92.66428 71.31812) (end 74.9554 89.027) (width 0.25) (layer B.Cu) (net 20))
  (segment (start 92.66428 63.29056) (end 92.66428 71.31812) (width 0.25) (layer B.Cu) (net 20))
  (segment (start 90.66784 63.28802) (end 90.6653 63.29056) (width 0.4) (layer B.Cu) (net 21))
  (segment (start 90.66784 59.08664) (end 90.66784 63.28802) (width 0.4) (layer B.Cu) (net 21))
  (via (at 113.665 61.1886) (size 0.8) (drill 0.4) (layers F.Cu B.Cu) (net 22))
  (segment (start 113.66754 61.18606) (end 113.665 61.1886) (width 0.25) (layer B.Cu) (net 22))
  (segment (start 113.66754 59.08664) (end 113.66754 61.18606) (width 0.25) (layer B.Cu) (net 22))
  (segment (start 114.745401 90.717001) (end 115.5954 91.567) (width 0.25) (layer F.Cu) (net 22))
  (segment (start 113.665 61.754285) (end 114.420399 62.509684) (width 0.25) (layer F.Cu) (net 22))
  (segment (start 114.420399 90.391999) (end 114.745401 90.717001) (width 0.25) (layer F.Cu) (net 22))
  (segment (start 114.420399 62.509684) (end 114.420399 90.391999) (width 0.25) (layer F.Cu) (net 22))
  (segment (start 113.665 61.1886) (end 113.665 61.754285) (width 0.25) (layer F.Cu) (net 22))
  (via (at 111.6584 61.1886) (size 0.8) (drill 0.4) (layers F.Cu B.Cu) (net 23))
  (segment (start 111.66602 61.18098) (end 111.6584 61.1886) (width 0.25) (layer B.Cu) (net 23))
  (segment (start 111.66602 59.08664) (end 111.66602 61.18098) (width 0.25) (layer B.Cu) (net 23))
  (segment (start 112.205401 90.717001) (end 113.0554 91.567) (width 0.25) (layer F.Cu) (net 23))
  (segment (start 111.880399 90.391999) (end 112.205401 90.717001) (width 0.25) (layer F.Cu) (net 23))
  (segment (start 111.880399 61.976284) (end 111.880399 90.391999) (width 0.25) (layer F.Cu) (net 23))
  (segment (start 111.6584 61.754285) (end 111.880399 61.976284) (width 0.25) (layer F.Cu) (net 23))
  (segment (start 111.6584 61.1886) (end 111.6584 61.754285) (width 0.25) (layer F.Cu) (net 23))
  (segment (start 110.6678 61.153238) (end 110.658744 61.162294) (width 0.25) (layer B.Cu) (net 24))
  (via (at 110.658744 61.162294) (size 0.8) (drill 0.4) (layers F.Cu B.Cu) (net 24))
  (segment (start 110.6678 59.08664) (end 110.6678 61.153238) (width 0.25) (layer B.Cu) (net 24))
  (segment (start 109.665401 90.717001) (end 110.5154 91.567) (width 0.25) (layer F.Cu) (net 24))
  (segment (start 109.340399 63.046324) (end 109.340399 90.391999) (width 0.25) (layer F.Cu) (net 24))
  (segment (start 109.340399 90.391999) (end 109.665401 90.717001) (width 0.25) (layer F.Cu) (net 24))
  (segment (start 110.658744 61.727979) (end 109.340399 63.046324) (width 0.25) (layer F.Cu) (net 24))
  (segment (start 110.658744 61.162294) (end 110.658744 61.727979) (width 0.25) (layer F.Cu) (net 24))
  (via (at 109.660032 61.111528) (size 0.8) (drill 0.4) (layers F.Cu B.Cu) (net 25))
  (segment (start 109.66704 61.10452) (end 109.660032 61.111528) (width 0.25) (layer B.Cu) (net 25))
  (segment (start 109.66704 59.08664) (end 109.66704 61.10452) (width 0.25) (layer B.Cu) (net 25))
  (segment (start 106.800399 63.971161) (end 106.800399 90.391999) (width 0.25) (layer F.Cu) (net 25))
  (segment (start 107.125401 90.717001) (end 107.9754 91.567) (width 0.25) (layer F.Cu) (net 25))
  (segment (start 106.800399 90.391999) (end 107.125401 90.717001) (width 0.25) (layer F.Cu) (net 25))
  (segment (start 109.660032 61.111528) (end 106.800399 63.971161) (width 0.25) (layer F.Cu) (net 25))
  (via (at 108.661414 61.058936) (size 0.8) (drill 0.4) (layers F.Cu B.Cu) (net 26))
  (segment (start 108.66628 61.05407) (end 108.661414 61.058936) (width 0.25) (layer B.Cu) (net 26))
  (segment (start 108.66628 59.08664) (end 108.66628 61.05407) (width 0.25) (layer B.Cu) (net 26))
  (segment (start 104.585401 90.717001) (end 105.4354 91.567) (width 0.25) (layer F.Cu) (net 26))
  (segment (start 104.260399 90.391999) (end 104.585401 90.717001) (width 0.25) (layer F.Cu) (net 26))
  (segment (start 104.260399 65.459951) (end 104.260399 90.391999) (width 0.25) (layer F.Cu) (net 26))
  (segment (start 108.661414 61.058936) (end 104.260399 65.459951) (width 0.25) (layer F.Cu) (net 26))
  (segment (start 106.6673 61.3283) (end 106.68 61.341) (width 0.25) (layer B.Cu) (net 27))
  (via (at 106.68 61.341) (size 0.8) (drill 0.4) (layers F.Cu B.Cu) (net 27))
  (segment (start 106.6673 59.08664) (end 106.6673 61.3283) (width 0.25) (layer B.Cu) (net 27))
  (segment (start 102.045401 90.717001) (end 102.8954 91.567) (width 0.25) (layer F.Cu) (net 27))
  (segment (start 101.720399 90.391999) (end 102.045401 90.717001) (width 0.25) (layer F.Cu) (net 27))
  (segment (start 101.720399 66.300601) (end 101.720399 90.391999) (width 0.25) (layer F.Cu) (net 27))
  (segment (start 106.68 61.341) (end 101.720399 66.300601) (width 0.25) (layer F.Cu) (net 27))
  (via (at 105.6831 61.262298) (size 0.8) (drill 0.4) (layers F.Cu B.Cu) (net 28))
  (segment (start 105.66654 61.245738) (end 105.6831 61.262298) (width 0.25) (layer B.Cu) (net 28))
  (segment (start 105.66654 59.08664) (end 105.66654 61.245738) (width 0.25) (layer B.Cu) (net 28))
  (segment (start 99.505401 90.717001) (end 100.3554 91.567) (width 0.25) (layer F.Cu) (net 28))
  (segment (start 98.990401 90.202001) (end 99.505401 90.717001) (width 0.25) (layer F.Cu) (net 28))
  (segment (start 98.990401 67.954997) (end 98.990401 90.202001) (width 0.25) (layer F.Cu) (net 28))
  (segment (start 105.6831 61.262298) (end 98.990401 67.954997) (width 0.25) (layer F.Cu) (net 28))
  (via (at 104.688686 61.156734) (size 0.8) (drill 0.4) (layers F.Cu B.Cu) (net 29))
  (segment (start 104.66578 61.133828) (end 104.688686 61.156734) (width 0.25) (layer B.Cu) (net 29))
  (segment (start 104.66578 59.08664) (end 104.66578 61.133828) (width 0.25) (layer B.Cu) (net 29))
  (segment (start 96.965401 90.717001) (end 97.8154 91.567) (width 0.25) (layer F.Cu) (net 29))
  (segment (start 96.640399 90.391999) (end 96.965401 90.717001) (width 0.25) (layer F.Cu) (net 29))
  (segment (start 96.640399 69.205021) (end 96.640399 90.391999) (width 0.25) (layer F.Cu) (net 29))
  (segment (start 104.688686 61.156734) (end 96.640399 69.205021) (width 0.25) (layer F.Cu) (net 29))
  (via (at 103.6574 60.96) (size 0.8) (drill 0.4) (layers F.Cu B.Cu) (net 30))
  (segment (start 103.66756 60.94984) (end 103.6574 60.96) (width 0.25) (layer B.Cu) (net 30))
  (segment (start 103.66756 59.08664) (end 103.66756 60.94984) (width 0.25) (layer B.Cu) (net 30))
  (segment (start 94.425401 90.717001) (end 95.2754 91.567) (width 0.25) (layer F.Cu) (net 30))
  (segment (start 94.100399 90.391999) (end 94.425401 90.717001) (width 0.25) (layer F.Cu) (net 30))
  (segment (start 94.100399 69.951316) (end 94.100399 90.391999) (width 0.25) (layer F.Cu) (net 30))
  (segment (start 103.091715 60.96) (end 94.100399 69.951316) (width 0.25) (layer F.Cu) (net 30))
  (segment (start 103.6574 60.96) (end 103.091715 60.96) (width 0.25) (layer F.Cu) (net 30))
  (segment (start 91.885401 90.717001) (end 92.7354 91.567) (width 0.25) (layer F.Cu) (net 31))
  (segment (start 91.370401 90.202001) (end 91.885401 90.717001) (width 0.25) (layer F.Cu) (net 31))
  (segment (start 91.370401 71.646799) (end 91.370401 90.202001) (width 0.25) (layer F.Cu) (net 31))
  (segment (start 101.7016 61.3156) (end 91.370401 71.646799) (width 0.25) (layer F.Cu) (net 31))
  (via (at 101.7016 61.3156) (size 0.8) (drill 0.4) (layers F.Cu B.Cu) (net 31))
  (segment (start 101.66604 61.28004) (end 101.7016 61.3156) (width 0.25) (layer B.Cu) (net 31))
  (segment (start 101.66604 59.08664) (end 101.66604 61.28004) (width 0.25) (layer B.Cu) (net 31))
  (segment (start 89.020399 90.391999) (end 90.1954 91.567) (width 0.25) (layer F.Cu) (net 32))
  (segment (start 89.020399 72.676001) (end 89.020399 90.391999) (width 0.25) (layer F.Cu) (net 32))
  (segment (start 100.6856 61.1886) (end 89.020399 72.676001) (width 0.25) (layer F.Cu) (net 32))
  (via (at 100.6856 61.1886) (size 0.8) (drill 0.4) (layers F.Cu B.Cu) (net 32))
  (segment (start 100.66782 61.17082) (end 100.6856 61.1886) (width 0.25) (layer B.Cu) (net 32))
  (segment (start 100.66782 59.08664) (end 100.66782 61.17082) (width 0.25) (layer B.Cu) (net 32))
  (segment (start 86.480399 90.391999) (end 86.480399 74.190695) (width 0.25) (layer F.Cu) (net 33))
  (segment (start 99.563347 59.190353) (end 99.66706 59.08664) (width 0.25) (layer B.Cu) (net 33))
  (segment (start 86.805401 90.717001) (end 87.6554 91.567) (width 0.25) (layer F.Cu) (net 33))
  (segment (start 86.480399 90.391999) (end 86.805401 90.717001) (width 0.25) (layer F.Cu) (net 33))
  (segment (start 86.480399 73.902934) (end 86.480399 90.391999) (width 0.25) (layer F.Cu) (net 33))
  (segment (start 99.6696 61.1378) (end 86.480399 73.902934) (width 0.25) (layer F.Cu) (net 33))
  (segment (start 99.66706 60.716273) (end 99.66706 59.08664) (width 0.25) (layer B.Cu) (net 33))
  (segment (start 99.6696 61.1378) (end 99.66706 60.716273) (width 0.25) (layer B.Cu) (net 33))
  (via (at 99.6696 61.1378) (size 0.8) (drill 0.4) (layers F.Cu B.Cu) (net 33))
  (via (at 98.6536 60.9092) (size 0.8) (drill 0.4) (layers F.Cu B.Cu) (net 34))
  (segment (start 98.6663 60.8965) (end 98.6536 60.9092) (width 0.25) (layer B.Cu) (net 34))
  (segment (start 98.6663 59.08664) (end 98.6663 60.8965) (width 0.25) (layer B.Cu) (net 34))
  (segment (start 83.750401 90.202001) (end 84.265401 90.717001) (width 0.25) (layer F.Cu) (net 34))
  (segment (start 84.265401 90.717001) (end 85.1154 91.567) (width 0.25) (layer F.Cu) (net 34))
  (segment (start 83.750401 75.812399) (end 83.750401 90.202001) (width 0.25) (layer F.Cu) (net 34))
  (segment (start 98.6536 60.9092) (end 83.750401 75.812399) (width 0.25) (layer F.Cu) (net 34))
  (via (at 96.6724 61.4426) (size 0.8) (drill 0.4) (layers F.Cu B.Cu) (net 35))
  (segment (start 96.66732 61.43752) (end 96.6724 61.4426) (width 0.25) (layer B.Cu) (net 35))
  (segment (start 96.66732 59.08664) (end 96.66732 61.43752) (width 0.25) (layer B.Cu) (net 35))
  (segment (start 81.725401 90.717001) (end 82.5754 91.567) (width 0.25) (layer F.Cu) (net 35))
  (segment (start 81.400399 90.391999) (end 81.725401 90.717001) (width 0.25) (layer F.Cu) (net 35))
  (segment (start 81.400399 76.148916) (end 81.400399 90.391999) (width 0.25) (layer F.Cu) (net 35))
  (segment (start 96.106715 61.4426) (end 81.400399 76.148916) (width 0.25) (layer F.Cu) (net 35))
  (segment (start 96.6724 61.4426) (end 96.106715 61.4426) (width 0.25) (layer F.Cu) (net 35))
  (via (at 95.6564 60.8076) (size 0.8) (drill 0.4) (layers F.Cu B.Cu) (net 36))
  (segment (start 95.66656 60.79744) (end 95.6564 60.8076) (width 0.25) (layer B.Cu) (net 36))
  (segment (start 95.66656 59.08664) (end 95.66656 60.79744) (width 0.25) (layer B.Cu) (net 36))
  (segment (start 79.185401 90.717001) (end 80.0354 91.567) (width 0.25) (layer F.Cu) (net 36))
  (segment (start 78.860399 90.391999) (end 79.185401 90.717001) (width 0.25) (layer F.Cu) (net 36))
  (segment (start 78.860399 77.603601) (end 78.860399 90.391999) (width 0.25) (layer F.Cu) (net 36))
  (segment (start 95.6564 60.8076) (end 78.860399 77.603601) (width 0.25) (layer F.Cu) (net 36))
  (via (at 93.6498 61.2902) (size 0.8) (drill 0.4) (layers F.Cu B.Cu) (net 37))
  (segment (start 93.66758 61.27242) (end 93.6498 61.2902) (width 0.25) (layer B.Cu) (net 37))
  (segment (start 93.66758 59.08664) (end 93.66758 61.27242) (width 0.25) (layer B.Cu) (net 37))
  (segment (start 76.645401 90.717001) (end 77.4954 91.567) (width 0.25) (layer F.Cu) (net 37))
  (segment (start 76.130401 78.809599) (end 76.130401 90.202001) (width 0.25) (layer F.Cu) (net 37))
  (segment (start 76.130401 90.202001) (end 76.645401 90.717001) (width 0.25) (layer F.Cu) (net 37))
  (segment (start 93.6498 61.2902) (end 76.130401 78.809599) (width 0.25) (layer F.Cu) (net 37))
  (segment (start 92.66682 60.72378) (end 92.6338 60.7568) (width 0.25) (layer B.Cu) (net 38))
  (via (at 92.6338 60.7568) (size 0.8) (drill 0.4) (layers F.Cu B.Cu) (net 38))
  (segment (start 92.66682 59.08664) (end 92.66682 60.72378) (width 0.25) (layer B.Cu) (net 38))
  (segment (start 73.780399 90.391999) (end 74.105401 90.717001) (width 0.25) (layer F.Cu) (net 38))
  (segment (start 74.105401 90.717001) (end 74.9554 91.567) (width 0.25) (layer F.Cu) (net 38))
  (segment (start 73.780399 79.610201) (end 73.780399 90.391999) (width 0.25) (layer F.Cu) (net 38))
  (segment (start 92.6338 60.7568) (end 73.780399 79.610201) (width 0.25) (layer F.Cu) (net 38))
  (segment (start 67.14 91.6686) (end 66.04 91.6686) (width 0.25) (layer F.Cu) (net 41))
  (segment (start 70.6488 66.9872) (end 70.6488 88.1598) (width 0.25) (layer F.Cu) (net 41))
  (segment (start 70.6488 88.1598) (end 69.8246 88.984) (width 0.25) (layer F.Cu) (net 41))
  (segment (start 69.8246 88.984) (end 67.14 91.6686) (width 0.25) (layer F.Cu) (net 41))

  (zone (net 8) (net_name GND) (layer B.Cu) (tstamp 5BAFAA6F) (hatch edge 0.508)
    (connect_pads (clearance 0.508))
    (min_thickness 0.254)
    (fill yes (arc_segments 16) (thermal_gap 0.508) (thermal_bridge_width 0.508))
    (polygon
      (pts
        (xy 60.0202 54.0258) (xy 59.9948 95.9866) (xy 119.9896 95.9866) (xy 119.9896 54.0004)
      )
    )
    (filled_polygon
      (pts
        (xy 119.290001 95.29) (xy 60.71 95.29) (xy 60.71 92.02549) (xy 62.058524 92.02549) (xy 62.228355 92.435524)
        (xy 62.618642 92.863783) (xy 63.143108 93.110086) (xy 63.373 92.989419) (xy 63.373 91.7956) (xy 62.179845 91.7956)
        (xy 62.058524 92.02549) (xy 60.71 92.02549) (xy 60.71 89.48549) (xy 62.058524 89.48549) (xy 62.228355 89.895524)
        (xy 62.618642 90.323783) (xy 62.777954 90.3986) (xy 62.618642 90.473417) (xy 62.228355 90.901676) (xy 62.058524 91.31171)
        (xy 62.179845 91.5416) (xy 63.373 91.5416) (xy 63.373 89.2556) (xy 62.179845 89.2556) (xy 62.058524 89.48549)
        (xy 60.71 89.48549) (xy 60.71 86.94549) (xy 62.058524 86.94549) (xy 62.228355 87.355524) (xy 62.618642 87.783783)
        (xy 62.777954 87.8586) (xy 62.618642 87.933417) (xy 62.228355 88.361676) (xy 62.058524 88.77171) (xy 62.179845 89.0016)
        (xy 63.373 89.0016) (xy 63.373 86.7156) (xy 62.179845 86.7156) (xy 62.058524 86.94549) (xy 60.71 86.94549)
        (xy 60.71 84.40549) (xy 62.058524 84.40549) (xy 62.228355 84.815524) (xy 62.618642 85.243783) (xy 62.777954 85.3186)
        (xy 62.618642 85.393417) (xy 62.228355 85.821676) (xy 62.058524 86.23171) (xy 62.179845 86.4616) (xy 63.373 86.4616)
        (xy 63.373 84.1756) (xy 62.179845 84.1756) (xy 62.058524 84.40549) (xy 60.71 84.40549) (xy 60.71 81.86549)
        (xy 62.058524 81.86549) (xy 62.228355 82.275524) (xy 62.618642 82.703783) (xy 62.777954 82.7786) (xy 62.618642 82.853417)
        (xy 62.228355 83.281676) (xy 62.058524 83.69171) (xy 62.179845 83.9216) (xy 63.373 83.9216) (xy 63.373 81.6356)
        (xy 62.179845 81.6356) (xy 62.058524 81.86549) (xy 60.71 81.86549) (xy 60.71 79.32549) (xy 62.058524 79.32549)
        (xy 62.228355 79.735524) (xy 62.618642 80.163783) (xy 62.777954 80.2386) (xy 62.618642 80.313417) (xy 62.228355 80.741676)
        (xy 62.058524 81.15171) (xy 62.179845 81.3816) (xy 63.373 81.3816) (xy 63.373 79.0956) (xy 62.179845 79.0956)
        (xy 62.058524 79.32549) (xy 60.71 79.32549) (xy 60.71 78.61171) (xy 62.058524 78.61171) (xy 62.179845 78.8416)
        (xy 63.373 78.8416) (xy 63.373 77.647781) (xy 63.627 77.647781) (xy 63.627 78.8416) (xy 63.647 78.8416)
        (xy 63.647 79.0956) (xy 63.627 79.0956) (xy 63.627 81.3816) (xy 63.647 81.3816) (xy 63.647 81.6356)
        (xy 63.627 81.6356) (xy 63.627 83.9216) (xy 63.647 83.9216) (xy 63.647 84.1756) (xy 63.627 84.1756)
        (xy 63.627 86.4616) (xy 63.647 86.4616) (xy 63.647 86.7156) (xy 63.627 86.7156) (xy 63.627 89.0016)
        (xy 63.647 89.0016) (xy 63.647 89.2556) (xy 63.627 89.2556) (xy 63.627 91.5416) (xy 63.647 91.5416)
        (xy 63.647 91.7956) (xy 63.627 91.7956) (xy 63.627 92.989419) (xy 63.856892 93.110086) (xy 64.381358 92.863783)
        (xy 64.570039 92.656745) (xy 64.591843 92.766365) (xy 64.732191 92.976409) (xy 64.942235 93.116757) (xy 65.19 93.16604)
        (xy 66.89 93.16604) (xy 67.137765 93.116757) (xy 67.347809 92.976409) (xy 67.488157 92.766365) (xy 67.53744 92.5186)
        (xy 67.53744 90.8186) (xy 67.488157 90.570835) (xy 67.347809 90.360791) (xy 67.137765 90.220443) (xy 67.092381 90.211416)
        (xy 67.110625 90.199225) (xy 67.438839 89.708018) (xy 67.554092 89.1286) (xy 67.438839 88.549182) (xy 67.110625 88.057975)
        (xy 66.812239 87.8586) (xy 67.110625 87.659225) (xy 67.259443 87.436504) (xy 67.324314 87.4236) (xy 67.324318 87.4236)
        (xy 67.567882 87.375152) (xy 67.844082 87.190601) (xy 67.890668 87.12088) (xy 69.798083 85.213466) (xy 69.867801 85.166882)
        (xy 70.052352 84.890682) (xy 70.1008 84.647118) (xy 70.1008 84.647117) (xy 70.117158 84.564881) (xy 70.1008 84.482644)
        (xy 70.1008 77.257067) (xy 86.986925 60.370944) (xy 86.78291 60.86348) (xy 86.78291 61.51372) (xy 87.031746 62.114464)
        (xy 87.491536 62.574254) (xy 88.09228 62.82309) (xy 88.74252 62.82309) (xy 89.343264 62.574254) (xy 89.765504 62.152014)
        (xy 89.71814 62.39013) (xy 89.71814 64.19099) (xy 89.767423 64.438755) (xy 89.907771 64.648799) (xy 90.117815 64.789147)
        (xy 90.36558 64.83843) (xy 90.96502 64.83843) (xy 91.171101 64.797438) (xy 91.240031 64.82599) (xy 91.38031 64.82599)
        (xy 91.53906 64.66724) (xy 91.53906 64.474848) (xy 91.563177 64.438755) (xy 91.61246 64.19099) (xy 91.61246 62.39013)
        (xy 91.563177 62.142365) (xy 91.53906 62.106272) (xy 91.53906 61.91388) (xy 91.50284 61.87766) (xy 91.50284 60.49954)
        (xy 91.539058 60.463322) (xy 91.539058 60.62207) (xy 91.5988 60.62207) (xy 91.5988 60.962674) (xy 91.756369 61.34308)
        (xy 92.04752 61.634231) (xy 92.327271 61.750107) (xy 92.160195 61.78334) (xy 92.092089 61.75513) (xy 91.95181 61.75513)
        (xy 91.79306 61.91388) (xy 91.79306 62.10247) (xy 91.766403 62.142365) (xy 91.71712 62.39013) (xy 91.71712 64.19099)
        (xy 91.766403 64.438755) (xy 91.79306 64.47865) (xy 91.79306 64.66724) (xy 91.90428 64.77846) (xy 91.904281 71.003317)
        (xy 75.321808 87.585791) (xy 75.101656 87.542) (xy 74.809144 87.542) (xy 74.375982 87.628161) (xy 73.884775 87.956375)
        (xy 73.556561 88.447582) (xy 73.441308 89.027) (xy 73.556561 89.606418) (xy 73.884775 90.097625) (xy 74.183161 90.297)
        (xy 73.884775 90.496375) (xy 73.556561 90.987582) (xy 73.441308 91.567) (xy 73.556561 92.146418) (xy 73.884775 92.637625)
        (xy 74.375982 92.965839) (xy 74.809144 93.052) (xy 75.101656 93.052) (xy 75.534818 92.965839) (xy 76.026025 92.637625)
        (xy 76.2254 92.339239) (xy 76.424775 92.637625) (xy 76.915982 92.965839) (xy 77.349144 93.052) (xy 77.641656 93.052)
        (xy 78.074818 92.965839) (xy 78.566025 92.637625) (xy 78.7654 92.339239) (xy 78.964775 92.637625) (xy 79.455982 92.965839)
        (xy 79.889144 93.052) (xy 80.181656 93.052) (xy 80.614818 92.965839) (xy 81.106025 92.637625) (xy 81.3054 92.339239)
        (xy 81.504775 92.637625) (xy 81.995982 92.965839) (xy 82.429144 93.052) (xy 82.721656 93.052) (xy 83.154818 92.965839)
        (xy 83.646025 92.637625) (xy 83.8454 92.339239) (xy 84.044775 92.637625) (xy 84.535982 92.965839) (xy 84.969144 93.052)
        (xy 85.261656 93.052) (xy 85.694818 92.965839) (xy 86.186025 92.637625) (xy 86.3854 92.339239) (xy 86.584775 92.637625)
        (xy 87.075982 92.965839) (xy 87.509144 93.052) (xy 87.801656 93.052) (xy 88.234818 92.965839) (xy 88.726025 92.637625)
        (xy 88.9254 92.339239) (xy 89.124775 92.637625) (xy 89.615982 92.965839) (xy 90.049144 93.052) (xy 90.341656 93.052)
        (xy 90.774818 92.965839) (xy 91.266025 92.637625) (xy 91.4654 92.339239) (xy 91.664775 92.637625) (xy 92.155982 92.965839)
        (xy 92.589144 93.052) (xy 92.881656 93.052) (xy 93.314818 92.965839) (xy 93.806025 92.637625) (xy 94.0054 92.339239)
        (xy 94.204775 92.637625) (xy 94.695982 92.965839) (xy 95.129144 93.052) (xy 95.421656 93.052) (xy 95.854818 92.965839)
        (xy 96.346025 92.637625) (xy 96.5454 92.339239) (xy 96.744775 92.637625) (xy 97.235982 92.965839) (xy 97.669144 93.052)
        (xy 97.961656 93.052) (xy 98.394818 92.965839) (xy 98.886025 92.637625) (xy 99.0854 92.339239) (xy 99.284775 92.637625)
        (xy 99.775982 92.965839) (xy 100.209144 93.052) (xy 100.501656 93.052) (xy 100.934818 92.965839) (xy 101.426025 92.637625)
        (xy 101.6254 92.339239) (xy 101.824775 92.637625) (xy 102.315982 92.965839) (xy 102.749144 93.052) (xy 103.041656 93.052)
        (xy 103.474818 92.965839) (xy 103.966025 92.637625) (xy 104.1654 92.339239) (xy 104.364775 92.637625) (xy 104.855982 92.965839)
        (xy 105.289144 93.052) (xy 105.581656 93.052) (xy 106.014818 92.965839) (xy 106.506025 92.637625) (xy 106.7054 92.339239)
        (xy 106.904775 92.637625) (xy 107.395982 92.965839) (xy 107.829144 93.052) (xy 108.121656 93.052) (xy 108.554818 92.965839)
        (xy 109.046025 92.637625) (xy 109.2454 92.339239) (xy 109.444775 92.637625) (xy 109.935982 92.965839) (xy 110.369144 93.052)
        (xy 110.661656 93.052) (xy 111.094818 92.965839) (xy 111.586025 92.637625) (xy 111.7854 92.339239) (xy 111.984775 92.637625)
        (xy 112.475982 92.965839) (xy 112.909144 93.052) (xy 113.201656 93.052) (xy 113.634818 92.965839) (xy 114.126025 92.637625)
        (xy 114.3254 92.339239) (xy 114.524775 92.637625) (xy 115.015982 92.965839) (xy 115.449144 93.052) (xy 115.741656 93.052)
        (xy 116.174818 92.965839) (xy 116.666025 92.637625) (xy 116.994239 92.146418) (xy 117.109492 91.567) (xy 116.994239 90.987582)
        (xy 116.666025 90.496375) (xy 116.647781 90.484184) (xy 116.693165 90.475157) (xy 116.903209 90.334809) (xy 117.043557 90.124765)
        (xy 117.09284 89.877) (xy 117.09284 88.177) (xy 117.043557 87.929235) (xy 116.903209 87.719191) (xy 116.693165 87.578843)
        (xy 116.4454 87.52956) (xy 116.3554 87.52956) (xy 116.3554 83.259847) (xy 116.370288 83.185) (xy 116.3554 83.110153)
        (xy 116.3554 83.110148) (xy 116.311304 82.888463) (xy 116.143329 82.637071) (xy 116.079873 82.594671) (xy 114.425 80.939799)
        (xy 114.425 64.83589) (xy 114.96548 64.83589) (xy 115.213245 64.786607) (xy 115.423289 64.646259) (xy 115.563637 64.436215)
        (xy 115.61292 64.18845) (xy 115.61292 62.38759) (xy 115.565556 62.149474) (xy 115.990336 62.574254) (xy 116.59108 62.82309)
        (xy 117.24132 62.82309) (xy 117.842064 62.574254) (xy 118.301854 62.114464) (xy 118.55069 61.51372) (xy 118.55069 60.86348)
        (xy 118.301854 60.262736) (xy 117.842064 59.802946) (xy 117.24132 59.55411) (xy 116.59108 59.55411) (xy 115.990336 59.802946)
        (xy 115.564926 60.228356) (xy 115.61292 59.98707) (xy 115.61292 58.18621) (xy 115.563637 57.938445) (xy 115.55076 57.919173)
        (xy 115.55076 57.566478) (xy 115.6906 57.228874) (xy 115.6906 56.817126) (xy 115.533031 56.43672) (xy 115.24188 56.145569)
        (xy 114.861474 55.988) (xy 114.449726 55.988) (xy 114.06932 56.145569) (xy 113.778169 56.43672) (xy 113.6206 56.817126)
        (xy 113.6206 57.228874) (xy 113.748963 57.53877) (xy 113.468918 57.53877) (xy 113.453331 57.460409) (xy 113.315363 57.253925)
        (xy 113.315361 57.253923) (xy 113.268779 57.184208) (xy 113.199064 57.137626) (xy 111.383757 55.32232) (xy 111.337171 55.252599)
        (xy 111.060971 55.068048) (xy 110.817407 55.0196) (xy 110.817403 55.0196) (xy 110.73517 55.003243) (xy 110.652937 55.0196)
        (xy 90.404632 55.0196) (xy 90.322399 55.003243) (xy 90.240166 55.0196) (xy 90.240163 55.0196) (xy 89.996599 55.068048)
        (xy 89.720399 55.252599) (xy 89.673817 55.322314) (xy 68.733518 76.262615) (xy 68.6638 76.309199) (xy 68.617216 76.378917)
        (xy 68.479248 76.5854) (xy 68.414443 76.9112) (xy 68.430801 76.993438) (xy 68.4308 84.219013) (xy 67.119122 85.530692)
        (xy 67.110625 85.517975) (xy 66.812239 85.3186) (xy 67.110625 85.119225) (xy 67.438839 84.628018) (xy 67.554092 84.0486)
        (xy 67.438839 83.469182) (xy 67.110625 82.977975) (xy 66.812239 82.7786) (xy 67.110625 82.579225) (xy 67.438839 82.088018)
        (xy 67.554092 81.5086) (xy 67.438839 80.929182) (xy 67.110625 80.437975) (xy 66.812239 80.2386) (xy 67.110625 80.039225)
        (xy 67.438839 79.548018) (xy 67.554092 78.9686) (xy 67.438839 78.389182) (xy 67.110625 77.897975) (xy 66.619418 77.569761)
        (xy 66.186256 77.4836) (xy 65.893744 77.4836) (xy 65.460582 77.569761) (xy 64.969375 77.897975) (xy 64.768647 78.198386)
        (xy 64.381358 77.773417) (xy 63.856892 77.527114) (xy 63.627 77.647781) (xy 63.373 77.647781) (xy 63.143108 77.527114)
        (xy 62.618642 77.773417) (xy 62.228355 78.201676) (xy 62.058524 78.61171) (xy 60.71 78.61171) (xy 60.71 54.71)
        (xy 119.29 54.71)
      )
    )
    (filled_polygon
      (pts
        (xy 107.783983 61.645216) (xy 107.922584 61.783817) (xy 107.79252 61.91388) (xy 107.79252 62.106272) (xy 107.768403 62.142365)
        (xy 107.71912 62.39013) (xy 107.71912 64.19099) (xy 107.768403 64.438755) (xy 107.79252 64.474848) (xy 107.79252 64.66724)
        (xy 107.90628 64.781) (xy 107.906281 85.481316) (xy 105.801808 87.585791) (xy 105.581656 87.542) (xy 105.455202 87.542)
        (xy 107.149233 85.847969) (xy 107.212689 85.805569) (xy 107.380664 85.554177) (xy 107.42476 85.332492) (xy 107.42476 85.332488)
        (xy 107.439648 85.257641) (xy 107.42476 85.182794) (xy 107.42476 64.781) (xy 107.53852 64.66724) (xy 107.53852 64.474848)
        (xy 107.562637 64.438755) (xy 107.61192 64.19099) (xy 107.61192 62.39013) (xy 107.562637 62.142365) (xy 107.53852 62.106272)
        (xy 107.53852 61.946191) (xy 107.557431 61.92728) (xy 107.715 61.546874) (xy 107.715 61.478676)
      )
    )
    (filled_polygon
      (pts
        (xy 94.778969 61.39388) (xy 95.07012 61.685031) (xy 95.260424 61.763857) (xy 95.160759 61.783682) (xy 95.091829 61.75513)
        (xy 94.95155 61.75513) (xy 94.7928 61.91388) (xy 94.7928 62.106272) (xy 94.768683 62.142365) (xy 94.7194 62.39013)
        (xy 94.7194 64.19099) (xy 94.768683 64.438755) (xy 94.7928 64.474848) (xy 94.7928 64.66724) (xy 94.90656 64.781)
        (xy 94.906561 73.081036) (xy 80.401808 87.585791) (xy 80.181656 87.542) (xy 80.055201 87.542) (xy 94.149513 73.447689)
        (xy 94.212969 73.405289) (xy 94.380944 73.153897) (xy 94.42504 72.932212) (xy 94.42504 72.932208) (xy 94.439928 72.857361)
        (xy 94.42504 72.782514) (xy 94.42504 64.781) (xy 94.5388 64.66724) (xy 94.5388 64.474848) (xy 94.562917 64.438755)
        (xy 94.6122 64.19099) (xy 94.6122 62.39013) (xy 94.562917 62.142365) (xy 94.5388 62.106272) (xy 94.5388 61.91388)
        (xy 94.514316 61.889396) (xy 94.527231 61.87648) (xy 94.6848 61.496074) (xy 94.6848 61.166535)
      )
    )
    (filled_polygon
      (pts
        (xy 97.776169 61.49548) (xy 98.035819 61.75513) (xy 97.95129 61.75513) (xy 97.79254 61.91388) (xy 97.79254 62.106272)
        (xy 97.768423 62.142365) (xy 97.71914 62.39013) (xy 97.71914 64.19099) (xy 97.768423 64.438755) (xy 97.79254 64.474848)
        (xy 97.79254 64.66724) (xy 97.9063 64.781) (xy 97.906301 75.161297) (xy 85.481808 87.585791) (xy 85.261656 87.542)
        (xy 85.135201 87.542) (xy 97.149253 75.527949) (xy 97.212709 75.485549) (xy 97.380684 75.234157) (xy 97.42478 75.012472)
        (xy 97.42478 75.012468) (xy 97.439668 74.937621) (xy 97.42478 74.862774) (xy 97.42478 64.781) (xy 97.53854 64.66724)
        (xy 97.53854 64.474848) (xy 97.562657 64.438755) (xy 97.61194 64.19099) (xy 97.61194 62.39013) (xy 97.562657 62.142365)
        (xy 97.53854 62.106272) (xy 97.53854 62.040171) (xy 97.549831 62.02888) (xy 97.7074 61.648474) (xy 97.7074 61.329457)
      )
    )
    (filled_polygon
      (pts
        (xy 102.779969 61.54628) (xy 102.988819 61.75513) (xy 102.95001 61.75513) (xy 102.79126 61.91388) (xy 102.79126 62.106272)
        (xy 102.767143 62.142365) (xy 102.71786 62.39013) (xy 102.71786 64.19099) (xy 102.767143 64.438755) (xy 102.79126 64.474848)
        (xy 102.79126 64.66724) (xy 102.90502 64.781) (xy 102.905021 80.322576) (xy 95.641808 87.585791) (xy 95.421656 87.542)
        (xy 95.295201 87.542) (xy 102.150513 80.686689) (xy 102.213969 80.644289) (xy 102.381944 80.392897) (xy 102.42604 80.171212)
        (xy 102.42604 80.171208) (xy 102.440928 80.096361) (xy 102.42604 80.021514) (xy 102.42604 64.77846) (xy 102.53726 64.66724)
        (xy 102.53726 64.47865) (xy 102.563917 64.438755) (xy 102.6132 64.19099) (xy 102.6132 62.39013) (xy 102.563917 62.142365)
        (xy 102.53726 62.10247) (xy 102.53726 61.943651) (xy 102.579031 61.90188) (xy 102.7366 61.521474) (xy 102.7366 61.441578)
      )
    )
    (filled_polygon
      (pts
        (xy 111.25968 57.559978) (xy 111.16691 57.578431) (xy 110.96752 57.53877) (xy 110.36808 57.53877) (xy 110.16742 57.578683)
        (xy 109.96676 57.53877) (xy 109.36732 57.53877) (xy 109.16666 57.578683) (xy 108.966 57.53877) (xy 108.36656 57.53877)
        (xy 108.162195 57.57942) (xy 108.094089 57.55121) (xy 107.95381 57.55121) (xy 107.79506 57.70996) (xy 107.79506 57.89855)
        (xy 107.768403 57.938445) (xy 107.71912 58.18621) (xy 107.71912 59.98707) (xy 107.768403 60.234835) (xy 107.79506 60.27473)
        (xy 107.79506 60.461579) (xy 107.783983 60.472656) (xy 107.626414 60.853062) (xy 107.626414 60.92126) (xy 107.557431 60.75472)
        (xy 107.4273 60.624589) (xy 107.4273 60.57708) (xy 107.54106 60.46332) (xy 107.54106 60.270928) (xy 107.565177 60.234835)
        (xy 107.61446 59.98707) (xy 107.61446 58.18621) (xy 107.565177 57.938445) (xy 107.54106 57.902352) (xy 107.54106 57.70996)
        (xy 107.38231 57.55121) (xy 107.242031 57.55121) (xy 107.173101 57.579762) (xy 106.96702 57.53877) (xy 106.36758 57.53877)
        (xy 106.16692 57.578683) (xy 105.96626 57.53877) (xy 105.36682 57.53877) (xy 105.16616 57.578683) (xy 104.9655 57.53877)
        (xy 104.36606 57.53877) (xy 104.16667 57.578431) (xy 103.96728 57.53877) (xy 103.36784 57.53877) (xy 103.161759 57.579762)
        (xy 103.092829 57.55121) (xy 102.95255 57.55121) (xy 102.7938 57.70996) (xy 102.7938 57.902352) (xy 102.769683 57.938445)
        (xy 102.7204 58.18621) (xy 102.7204 59.98707) (xy 102.769683 60.234835) (xy 102.7938 60.270928) (xy 102.7938 60.359889)
        (xy 102.779969 60.37372) (xy 102.6224 60.754126) (xy 102.6224 60.834022) (xy 102.579031 60.72932) (xy 102.426416 60.576705)
        (xy 102.5398 60.46332) (xy 102.5398 60.270928) (xy 102.563917 60.234835) (xy 102.6132 59.98707) (xy 102.6132 58.18621)
        (xy 102.563917 57.938445) (xy 102.5398 57.902352) (xy 102.5398 57.70996) (xy 102.38105 57.55121) (xy 102.240771 57.55121)
        (xy 102.171841 57.579762) (xy 101.96576 57.53877) (xy 101.36632 57.53877) (xy 101.16693 57.578431) (xy 100.96754 57.53877)
        (xy 100.3681 57.53877) (xy 100.16744 57.578683) (xy 99.96678 57.53877) (xy 99.36734 57.53877) (xy 99.16668 57.578683)
        (xy 98.96602 57.53877) (xy 98.36658 57.53877) (xy 98.160499 57.579762) (xy 98.091569 57.55121) (xy 97.95129 57.55121)
        (xy 97.79254 57.70996) (xy 97.79254 57.902352) (xy 97.768423 57.938445) (xy 97.71914 58.18621) (xy 97.71914 59.23364)
        (xy 97.61448 59.23364) (xy 97.61448 58.18621) (xy 97.565197 57.938445) (xy 97.53854 57.89855) (xy 97.53854 57.70996)
        (xy 97.37979 57.55121) (xy 97.239511 57.55121) (xy 97.171405 57.57942) (xy 96.96704 57.53877) (xy 96.3676 57.53877)
        (xy 96.16694 57.578683) (xy 95.96628 57.53877) (xy 95.36684 57.53877) (xy 95.160759 57.579762) (xy 95.091829 57.55121)
        (xy 94.95155 57.55121) (xy 94.7928 57.70996) (xy 94.7928 57.902352) (xy 94.768683 57.938445) (xy 94.7194 58.18621)
        (xy 94.7194 59.23364) (xy 94.61474 59.23364) (xy 94.61474 58.18621) (xy 94.565457 57.938445) (xy 94.5388 57.89855)
        (xy 94.5388 57.70996) (xy 94.38005 57.55121) (xy 94.239771 57.55121) (xy 94.171665 57.57942) (xy 93.9673 57.53877)
        (xy 93.36786 57.53877) (xy 93.1672 57.578683) (xy 92.96654 57.53877) (xy 92.3671 57.53877) (xy 92.161019 57.579762)
        (xy 92.092089 57.55121) (xy 91.95181 57.55121) (xy 91.79306 57.70996) (xy 91.79306 57.902352) (xy 91.768943 57.938445)
        (xy 91.71966 58.18621) (xy 91.71966 59.23364) (xy 91.615 59.23364) (xy 91.615 58.18621) (xy 91.565717 57.938445)
        (xy 91.53906 57.89855) (xy 91.53906 57.70996) (xy 91.38031 57.55121) (xy 91.240031 57.55121) (xy 91.171925 57.57942)
        (xy 90.96756 57.53877) (xy 90.36812 57.53877) (xy 90.120355 57.588053) (xy 89.910311 57.728401) (xy 89.769963 57.938445)
        (xy 89.72068 58.18621) (xy 89.72068 59.98707) (xy 89.768674 60.228356) (xy 89.343264 59.802946) (xy 88.74252 59.55411)
        (xy 88.09228 59.55411) (xy 87.599744 59.758125) (xy 90.668269 56.6896) (xy 110.389303 56.6896)
      )
    )
  )
  (zone (net 8) (net_name GND) (layer F.Cu) (tstamp 5BAFAA6C) (hatch edge 0.508)
    (connect_pads (clearance 0.508))
    (min_thickness 0.254)
    (fill yes (arc_segments 16) (thermal_gap 0.508) (thermal_bridge_width 0.508))
    (polygon
      (pts
        (xy 60.035745 54.035691) (xy 60.010345 95.996491) (xy 120.005145 95.996491) (xy 120.005145 54.010291)
      )
    )
    (filled_polygon
      (pts
        (xy 119.290001 95.29) (xy 60.71 95.29) (xy 60.71 92.02549) (xy 62.058524 92.02549) (xy 62.228355 92.435524)
        (xy 62.618642 92.863783) (xy 63.143108 93.110086) (xy 63.373 92.989419) (xy 63.373 91.7956) (xy 62.179845 91.7956)
        (xy 62.058524 92.02549) (xy 60.71 92.02549) (xy 60.71 89.48549) (xy 62.058524 89.48549) (xy 62.228355 89.895524)
        (xy 62.618642 90.323783) (xy 62.777954 90.3986) (xy 62.618642 90.473417) (xy 62.228355 90.901676) (xy 62.058524 91.31171)
        (xy 62.179845 91.5416) (xy 63.373 91.5416) (xy 63.373 89.2556) (xy 62.179845 89.2556) (xy 62.058524 89.48549)
        (xy 60.71 89.48549) (xy 60.71 86.94549) (xy 62.058524 86.94549) (xy 62.228355 87.355524) (xy 62.618642 87.783783)
        (xy 62.777954 87.8586) (xy 62.618642 87.933417) (xy 62.228355 88.361676) (xy 62.058524 88.77171) (xy 62.179845 89.0016)
        (xy 63.373 89.0016) (xy 63.373 86.7156) (xy 62.179845 86.7156) (xy 62.058524 86.94549) (xy 60.71 86.94549)
        (xy 60.71 84.40549) (xy 62.058524 84.40549) (xy 62.228355 84.815524) (xy 62.618642 85.243783) (xy 62.777954 85.3186)
        (xy 62.618642 85.393417) (xy 62.228355 85.821676) (xy 62.058524 86.23171) (xy 62.179845 86.4616) (xy 63.373 86.4616)
        (xy 63.373 84.1756) (xy 62.179845 84.1756) (xy 62.058524 84.40549) (xy 60.71 84.40549) (xy 60.71 81.86549)
        (xy 62.058524 81.86549) (xy 62.228355 82.275524) (xy 62.618642 82.703783) (xy 62.777954 82.7786) (xy 62.618642 82.853417)
        (xy 62.228355 83.281676) (xy 62.058524 83.69171) (xy 62.179845 83.9216) (xy 63.373 83.9216) (xy 63.373 81.6356)
        (xy 62.179845 81.6356) (xy 62.058524 81.86549) (xy 60.71 81.86549) (xy 60.71 79.32549) (xy 62.058524 79.32549)
        (xy 62.228355 79.735524) (xy 62.618642 80.163783) (xy 62.777954 80.2386) (xy 62.618642 80.313417) (xy 62.228355 80.741676)
        (xy 62.058524 81.15171) (xy 62.179845 81.3816) (xy 63.373 81.3816) (xy 63.373 79.0956) (xy 62.179845 79.0956)
        (xy 62.058524 79.32549) (xy 60.71 79.32549) (xy 60.71 62.362401) (xy 61.347661 62.362401) (xy 61.356811 62.408402)
        (xy 61.347662 62.454399) (xy 61.364999 62.54156) (xy 61.365 75.091433) (xy 61.347662 75.178599) (xy 61.416347 75.523908)
        (xy 61.562575 75.742753) (xy 61.562577 75.742755) (xy 61.611951 75.816648) (xy 61.685844 75.866022) (xy 63.372998 77.553177)
        (xy 63.372998 77.64778) (xy 63.143108 77.527114) (xy 62.618642 77.773417) (xy 62.228355 78.201676) (xy 62.058524 78.61171)
        (xy 62.179845 78.8416) (xy 63.373 78.8416) (xy 63.373 78.8216) (xy 63.627 78.8216) (xy 63.627 78.8416)
        (xy 63.647 78.8416) (xy 63.647 79.0956) (xy 63.627 79.0956) (xy 63.627 81.3816) (xy 63.647 81.3816)
        (xy 63.647 81.6356) (xy 63.627 81.6356) (xy 63.627 83.9216) (xy 63.647 83.9216) (xy 63.647 84.1756)
        (xy 63.627 84.1756) (xy 63.627 86.4616) (xy 63.647 86.4616) (xy 63.647 86.7156) (xy 63.627 86.7156)
        (xy 63.627 89.0016) (xy 63.647 89.0016) (xy 63.647 89.2556) (xy 63.627 89.2556) (xy 63.627 91.5416)
        (xy 63.647 91.5416) (xy 63.647 91.7956) (xy 63.627 91.7956) (xy 63.627 92.989419) (xy 63.856892 93.110086)
        (xy 64.381358 92.863783) (xy 64.570039 92.656745) (xy 64.591843 92.766365) (xy 64.732191 92.976409) (xy 64.942235 93.116757)
        (xy 65.19 93.16604) (xy 66.89 93.16604) (xy 67.137765 93.116757) (xy 67.347809 92.976409) (xy 67.488157 92.766365)
        (xy 67.53744 92.5186) (xy 67.53744 92.317083) (xy 67.687929 92.216529) (xy 67.730331 92.15307) (xy 70.414929 89.468473)
        (xy 70.414931 89.46847) (xy 71.133273 88.750129) (xy 71.196729 88.707729) (xy 71.335845 88.499528) (xy 71.364704 88.456338)
        (xy 71.383533 88.361676) (xy 71.4088 88.234652) (xy 71.4088 88.234648) (xy 71.423688 88.1598) (xy 71.4088 88.084952)
        (xy 71.4088 79.610201) (xy 73.005511 79.610201) (xy 73.020399 79.685048) (xy 73.0204 90.317147) (xy 73.005511 90.391999)
        (xy 73.0204 90.46685) (xy 73.0204 90.466851) (xy 73.064496 90.688536) (xy 73.232471 90.939928) (xy 73.295927 90.982328)
        (xy 73.514191 91.200592) (xy 73.441308 91.567) (xy 73.556561 92.146418) (xy 73.884775 92.637625) (xy 74.375982 92.965839)
        (xy 74.809144 93.052) (xy 75.101656 93.052) (xy 75.534818 92.965839) (xy 76.026025 92.637625) (xy 76.2254 92.339239)
        (xy 76.424775 92.637625) (xy 76.915982 92.965839) (xy 77.349144 93.052) (xy 77.641656 93.052) (xy 78.074818 92.965839)
        (xy 78.566025 92.637625) (xy 78.7654 92.339239) (xy 78.964775 92.637625) (xy 79.455982 92.965839) (xy 79.889144 93.052)
        (xy 80.181656 93.052) (xy 80.614818 92.965839) (xy 81.106025 92.637625) (xy 81.3054 92.339239) (xy 81.504775 92.637625)
        (xy 81.995982 92.965839) (xy 82.429144 93.052) (xy 82.721656 93.052) (xy 83.154818 92.965839) (xy 83.646025 92.637625)
        (xy 83.8454 92.339239) (xy 84.044775 92.637625) (xy 84.535982 92.965839) (xy 84.969144 93.052) (xy 85.261656 93.052)
        (xy 85.694818 92.965839) (xy 86.186025 92.637625) (xy 86.3854 92.339239) (xy 86.584775 92.637625) (xy 87.075982 92.965839)
        (xy 87.509144 93.052) (xy 87.801656 93.052) (xy 88.234818 92.965839) (xy 88.726025 92.637625) (xy 88.9254 92.339239)
        (xy 89.124775 92.637625) (xy 89.615982 92.965839) (xy 90.049144 93.052) (xy 90.341656 93.052) (xy 90.774818 92.965839)
        (xy 91.266025 92.637625) (xy 91.4654 92.339239) (xy 91.664775 92.637625) (xy 92.155982 92.965839) (xy 92.589144 93.052)
        (xy 92.881656 93.052) (xy 93.314818 92.965839) (xy 93.806025 92.637625) (xy 94.0054 92.339239) (xy 94.204775 92.637625)
        (xy 94.695982 92.965839) (xy 95.129144 93.052) (xy 95.421656 93.052) (xy 95.854818 92.965839) (xy 96.346025 92.637625)
        (xy 96.5454 92.339239) (xy 96.744775 92.637625) (xy 97.235982 92.965839) (xy 97.669144 93.052) (xy 97.961656 93.052)
        (xy 98.394818 92.965839) (xy 98.886025 92.637625) (xy 99.0854 92.339239) (xy 99.284775 92.637625) (xy 99.775982 92.965839)
        (xy 100.209144 93.052) (xy 100.501656 93.052) (xy 100.934818 92.965839) (xy 101.426025 92.637625) (xy 101.6254 92.339239)
        (xy 101.824775 92.637625) (xy 102.315982 92.965839) (xy 102.749144 93.052) (xy 103.041656 93.052) (xy 103.474818 92.965839)
        (xy 103.966025 92.637625) (xy 104.1654 92.339239) (xy 104.364775 92.637625) (xy 104.855982 92.965839) (xy 105.289144 93.052)
        (xy 105.581656 93.052) (xy 106.014818 92.965839) (xy 106.506025 92.637625) (xy 106.7054 92.339239) (xy 106.904775 92.637625)
        (xy 107.395982 92.965839) (xy 107.829144 93.052) (xy 108.121656 93.052) (xy 108.554818 92.965839) (xy 109.046025 92.637625)
        (xy 109.2454 92.339239) (xy 109.444775 92.637625) (xy 109.935982 92.965839) (xy 110.369144 93.052) (xy 110.661656 93.052)
        (xy 111.094818 92.965839) (xy 111.586025 92.637625) (xy 111.7854 92.339239) (xy 111.984775 92.637625) (xy 112.475982 92.965839)
        (xy 112.909144 93.052) (xy 113.201656 93.052) (xy 113.634818 92.965839) (xy 114.126025 92.637625) (xy 114.3254 92.339239)
        (xy 114.524775 92.637625) (xy 115.015982 92.965839) (xy 115.449144 93.052) (xy 115.741656 93.052) (xy 116.174818 92.965839)
        (xy 116.666025 92.637625) (xy 116.994239 92.146418) (xy 117.109492 91.567) (xy 116.994239 90.987582) (xy 116.666025 90.496375)
        (xy 116.647781 90.484184) (xy 116.693165 90.475157) (xy 116.903209 90.334809) (xy 117.043557 90.124765) (xy 117.09284 89.877)
        (xy 117.09284 88.177) (xy 117.043557 87.929235) (xy 116.903209 87.719191) (xy 116.693165 87.578843) (xy 116.4454 87.52956)
        (xy 115.180399 87.52956) (xy 115.180399 62.584532) (xy 115.195287 62.509684) (xy 115.180399 62.434836) (xy 115.180399 62.434832)
        (xy 115.136303 62.213147) (xy 114.968328 61.961755) (xy 114.904872 61.919355) (xy 114.606272 61.620755) (xy 114.7 61.394474)
        (xy 114.7 60.982726) (xy 114.650607 60.86348) (xy 115.28171 60.86348) (xy 115.28171 61.51372) (xy 115.530546 62.114464)
        (xy 115.990336 62.574254) (xy 116.59108 62.82309) (xy 117.24132 62.82309) (xy 117.842064 62.574254) (xy 118.301854 62.114464)
        (xy 118.55069 61.51372) (xy 118.55069 60.86348) (xy 118.301854 60.262736) (xy 117.842064 59.802946) (xy 117.24132 59.55411)
        (xy 116.59108 59.55411) (xy 115.990336 59.802946) (xy 115.530546 60.262736) (xy 115.28171 60.86348) (xy 114.650607 60.86348)
        (xy 114.542431 60.60232) (xy 114.25128 60.311169) (xy 113.870874 60.1536) (xy 113.459126 60.1536) (xy 113.07872 60.311169)
        (xy 112.787569 60.60232) (xy 112.6617 60.906195) (xy 112.535831 60.60232) (xy 112.24468 60.311169) (xy 111.864274 60.1536)
        (xy 111.452526 60.1536) (xy 111.190326 60.262206) (xy 110.864618 60.127294) (xy 110.45287 60.127294) (xy 110.220668 60.223475)
        (xy 109.865906 60.076528) (xy 109.454158 60.076528) (xy 109.224207 60.171777) (xy 108.867288 60.023936) (xy 108.45554 60.023936)
        (xy 108.075134 60.181505) (xy 107.783983 60.472656) (xy 107.626414 60.853062) (xy 107.626414 60.92126) (xy 107.557431 60.75472)
        (xy 107.26628 60.463569) (xy 106.885874 60.306) (xy 106.474126 60.306) (xy 106.273581 60.389068) (xy 106.26938 60.384867)
        (xy 105.888974 60.227298) (xy 105.477226 60.227298) (xy 105.297433 60.30177) (xy 105.274966 60.279303) (xy 104.89456 60.121734)
        (xy 104.482812 60.121734) (xy 104.341414 60.180303) (xy 104.24368 60.082569) (xy 103.863274 59.925) (xy 103.451526 59.925)
        (xy 103.07112 60.082569) (xy 102.938003 60.215686) (xy 102.795178 60.244096) (xy 102.543786 60.412071) (xy 102.501386 60.475527)
        (xy 102.413312 60.563601) (xy 102.28788 60.438169) (xy 101.907474 60.2806) (xy 101.495726 60.2806) (xy 101.315827 60.355116)
        (xy 101.27188 60.311169) (xy 100.891474 60.1536) (xy 100.479726 60.1536) (xy 100.238921 60.253344) (xy 99.875474 60.1028)
        (xy 99.463726 60.1028) (xy 99.355669 60.147558) (xy 99.23988 60.031769) (xy 98.859474 59.8742) (xy 98.447726 59.8742)
        (xy 98.06732 60.031769) (xy 97.776169 60.32292) (xy 97.6186 60.703326) (xy 97.6186 60.869398) (xy 97.573803 60.914195)
        (xy 97.549831 60.85632) (xy 97.25868 60.565169) (xy 96.878274 60.4076) (xy 96.610991 60.4076) (xy 96.533831 60.22132)
        (xy 96.24268 59.930169) (xy 95.862274 59.7726) (xy 95.450526 59.7726) (xy 95.07012 59.930169) (xy 94.778969 60.22132)
        (xy 94.6214 60.601726) (xy 94.6214 60.767797) (xy 94.573522 60.815676) (xy 94.527231 60.70392) (xy 94.23608 60.412769)
        (xy 93.855674 60.2552) (xy 93.546307 60.2552) (xy 93.511231 60.17052) (xy 93.22008 59.879369) (xy 92.839674 59.7218)
        (xy 92.427926 59.7218) (xy 92.04752 59.879369) (xy 91.756369 60.17052) (xy 91.5988 60.550926) (xy 91.5988 60.716997)
        (xy 73.295929 79.01987) (xy 73.23247 79.062272) (xy 73.064495 79.313665) (xy 73.020399 79.53535) (xy 73.020399 79.535354)
        (xy 73.005511 79.610201) (xy 71.4088 79.610201) (xy 71.4088 68.442733) (xy 71.571565 68.410357) (xy 71.781609 68.270009)
        (xy 71.921957 68.059965) (xy 71.97124 67.8122) (xy 71.97124 66.1622) (xy 71.921957 65.914435) (xy 71.887054 65.8622)
        (xy 71.921957 65.809965) (xy 71.97124 65.5622) (xy 71.97124 63.9122) (xy 71.921957 63.664435) (xy 71.781609 63.454391)
        (xy 71.571565 63.314043) (xy 71.3238 63.26476) (xy 69.9738 63.26476) (xy 69.7738 63.304542) (xy 69.5738 63.26476)
        (xy 68.2238 63.26476) (xy 67.976035 63.314043) (xy 67.765991 63.454391) (xy 67.625643 63.664435) (xy 67.57636 63.9122)
        (xy 67.57636 64.1034) (xy 66.607277 64.1034) (xy 66.491809 63.930591) (xy 66.281765 63.790243) (xy 66.034 63.74096)
        (xy 65.284 63.74096) (xy 65.036235 63.790243) (xy 64.917056 63.869877) (xy 63.455578 62.4084) (xy 65.000498 60.86348)
        (xy 86.78291 60.86348) (xy 86.78291 61.51372) (xy 87.031746 62.114464) (xy 87.491536 62.574254) (xy 88.09228 62.82309)
        (xy 88.74252 62.82309) (xy 89.343264 62.574254) (xy 89.803054 62.114464) (xy 90.05189 61.51372) (xy 90.05189 60.86348)
        (xy 89.803054 60.262736) (xy 89.343264 59.802946) (xy 88.74252 59.55411) (xy 88.09228 59.55411) (xy 87.491536 59.802946)
        (xy 87.031746 60.262736) (xy 86.78291 60.86348) (xy 65.000498 60.86348) (xy 67.955979 57.908) (xy 114.087593 57.908)
        (xy 114.449726 58.058) (xy 114.861474 58.058) (xy 115.24188 57.900431) (xy 115.533031 57.60928) (xy 115.6906 57.228874)
        (xy 115.6906 56.817126) (xy 115.533031 56.43672) (xy 115.24188 56.145569) (xy 114.861474 55.988) (xy 114.449726 55.988)
        (xy 114.087593 56.138) (xy 67.676559 56.138) (xy 67.589399 56.120663) (xy 67.502239 56.138) (xy 67.502235 56.138)
        (xy 67.24409 56.189348) (xy 67.244088 56.189349) (xy 67.244089 56.189349) (xy 67.025245 56.335576) (xy 67.025244 56.335577)
        (xy 66.951351 56.384951) (xy 66.901977 56.458844) (xy 61.685846 61.674976) (xy 61.61195 61.724352) (xy 61.416347 62.017091)
        (xy 61.347661 62.362401) (xy 60.71 62.362401) (xy 60.71 54.71) (xy 119.29 54.71)
      )
    )
    (filled_polygon
      (pts
        (xy 64.096577 65.552556) (xy 64.145951 65.626449) (xy 64.219844 65.675823) (xy 64.219845 65.675824) (xy 64.420601 65.809965)
        (xy 64.43869 65.822052) (xy 64.696835 65.8734) (xy 64.696839 65.8734) (xy 64.712851 65.876585) (xy 64.746873 65.927502)
        (xy 64.745673 65.928702) (xy 64.649 66.162091) (xy 64.649 66.60265) (xy 64.80775 66.7614) (xy 65.532 66.7614)
        (xy 65.532 66.7414) (xy 65.786 66.7414) (xy 65.786 66.7614) (xy 66.51025 66.7614) (xy 66.669 66.60265)
        (xy 66.669 66.162091) (xy 66.572327 65.928702) (xy 66.571127 65.927502) (xy 66.607277 65.8734) (xy 67.656106 65.8734)
        (xy 67.5888 66.035891) (xy 67.5888 66.70145) (xy 67.74755 66.8602) (xy 68.7718 66.8602) (xy 68.7718 66.8402)
        (xy 69.0258 66.8402) (xy 69.0258 66.8602) (xy 69.0458 66.8602) (xy 69.0458 67.1142) (xy 69.0258 67.1142)
        (xy 69.0258 68.28845) (xy 69.18455 68.4472) (xy 69.70011 68.4472) (xy 69.768611 68.418826) (xy 69.8888 68.442733)
        (xy 69.888801 87.844997) (xy 69.34013 88.393669) (xy 69.340127 88.393671) (xy 67.357902 90.375896) (xy 67.347809 90.360791)
        (xy 67.137765 90.220443) (xy 67.092381 90.211416) (xy 67.110625 90.199225) (xy 67.438839 89.708018) (xy 67.554092 89.1286)
        (xy 67.438839 88.549182) (xy 67.110625 88.057975) (xy 66.812239 87.8586) (xy 67.110625 87.659225) (xy 67.438839 87.168018)
        (xy 67.554092 86.5886) (xy 67.438839 86.009182) (xy 67.110625 85.517975) (xy 66.812239 85.3186) (xy 67.110625 85.119225)
        (xy 67.438839 84.628018) (xy 67.554092 84.0486) (xy 67.438839 83.469182) (xy 67.110625 82.977975) (xy 66.812239 82.7786)
        (xy 67.110625 82.579225) (xy 67.438839 82.088018) (xy 67.554092 81.5086) (xy 67.438839 80.929182) (xy 67.110625 80.437975)
        (xy 66.925 80.313944) (xy 66.925 80.163256) (xy 67.110625 80.039225) (xy 67.438839 79.548018) (xy 67.554092 78.9686)
        (xy 67.438839 78.389182) (xy 67.110625 77.897975) (xy 66.619418 77.569761) (xy 66.186256 77.4836) (xy 65.893744 77.4836)
        (xy 65.82104 77.498062) (xy 63.134999 74.812021) (xy 63.134999 67.17415) (xy 64.649 67.17415) (xy 64.649 67.614709)
        (xy 64.745673 67.848098) (xy 64.924301 68.026727) (xy 65.15769 68.1234) (xy 65.37325 68.1234) (xy 65.532 67.96465)
        (xy 65.532 67.0154) (xy 65.786 67.0154) (xy 65.786 67.96465) (xy 65.94475 68.1234) (xy 66.16031 68.1234)
        (xy 66.393699 68.026727) (xy 66.572327 67.848098) (xy 66.669 67.614709) (xy 66.669 67.27295) (xy 67.5888 67.27295)
        (xy 67.5888 67.938509) (xy 67.685473 68.171898) (xy 67.864101 68.350527) (xy 68.09749 68.4472) (xy 68.61305 68.4472)
        (xy 68.7718 68.28845) (xy 68.7718 67.1142) (xy 67.74755 67.1142) (xy 67.5888 67.27295) (xy 66.669 67.27295)
        (xy 66.669 67.17415) (xy 66.51025 67.0154) (xy 65.786 67.0154) (xy 65.532 67.0154) (xy 64.80775 67.0154)
        (xy 64.649 67.17415) (xy 63.134999 67.17415) (xy 63.134999 64.590978)
      )
    )
  )
)
